dbsnp	#CHROM	POS	RX193.2020	RX185.2020	RX187.2020	RX192.2020	RX181.2020	RX191.2020	RX190.2020	RX188.2020	RX184.2020	RX194.2020	RX182.2020	RX189.2020	RX183.2020
rs307355	chr1	1329774	1/1	1/1	0/1	1/1	1/1	1/1	1/1	1/1	1/1	1/1	1/1	1/1	0/1
rs35744813	chr1	1330080	1/1	1/1	0/1	1/1	1/1	1/1	1/1	1/1	1/1	1/1	1/1	1/1	0/1
rs307377	chr1	1334174	1/1	1/1	1/1	1/1	1/1	1/1	1/1	1/1	1/1	1/1	1/1	1/1	1/1
rs76597070	chr1	3752792	0/0	0/0	0/0	0/0	0/0	0/0	0/0	0/0	0/0	0/0	0/0	0/0	0/0
rs41278020	chr1	6571046	0/0	0/0	0/0	0/0	0/0	0/0	0/0	0/0	0/0	0/0	0/0	0/0	0/0
rs34160967	chr1	6575246	0/0	0/0	0/0	0/0	0/0	0/1	0/0	0/0	0/0	0/0	0/0	0/0	0/0
rs884736	chr1	6955045	0/0	1/1	1/1	0/1	0/1	0/1	1/1	0/1	0/1	0/1	1/1	1/1	1/1
rs34603401	chr1	9245386	0/1	0/1	0/0	0/0	0/0	0/0	0/0	0/0	0/0	0/0	0/0	0/1	0/0
rs1801131	chr1	11794419	1/1	0/0	0/1	0/1	0/0	0/0	0/1	0/0	0/0	0/1	0/1	0/1	0/1
rs1801133	chr1	11796321	0/0	1/1	0/0	0/0	0/0	0/0	0/1	0/0	0/0	0/1	0/1	0/1	0/1
rs1061622	chr1	12192898	0/0	0/1	0/1	0/0	0/0	0/0	0/0	0/0	0/0	0/1	0/1	0/0	1/1
rs1061624	chr1	12207208	1/1	0/0	1/1	1/1	0/0	0/1	0/0	0/1	1/1	0/0	0/1	0/1	1/1
rs3397	chr1	12207235	1/1	0/1	0/1	1/1	0/1	1/1	1/1	0/0	1/1	0/1	1/1	0/1	1/1
rs35874116	chr1	18854899	1/1	0/0	0/1	0/0	0/0	0/0	0/1	0/1	0/0	0/1	0/1	0/0	0/1
rs9701796	chr1	18859635	0/0	1/1	1/1	1/1	1/1	1/1	1/1	1/1	1/1	0/1	1/1	1/1	0/1
rs28441017	chr1	18879840	0/0	0/1	0/0	0/0	0/0	0/0	0/0	0/0	0/0	0/0	0/0	0/0	0/0
rs6300	chr1	23193140	0/0	0/0	0/0	0/0	0/0	0/0	0/0	0/0	0/0	0/0	0/1	0/0	0/0
rs674386	chr1	23195342	1/1	0/0	0/1	0/1	1/1	1/1	0/1	0/0	0/0	0/1	0/1	0/1	0/0
rs856510	chr1	23197914	1/1	0/0	0/1	0/1	1/1	1/1	0/1	0/0	0/0	0/1	0/1	0/1	0/0
rs3123554	chr1	23869911	0/1	0/1	0/1	0/1	1/1	0/0	1/1	1/1	0/1	0/1	0/1	0/0	1/1
rs6667686	chr1	23974359	1/1	0/1	0/1	0/0	0/0	0/0	0/1	0/0	0/1	0/1	1/1	0/0	0/1
rs11247915	chr1	26324059	1/1	1/1	0/1	1/1	0/1	0/1	0/1	1/1	0/1	0/1	0/1	0/1	0/1
rs6659176	chr1	26913429	0/0	0/0	0/0	0/0	0/0	0/0	0/0	0/0	0/0	0/0	0/0	0/0	0/0
rs145613139	chr1	26914161	0/0	0/0	0/0	0/0	0/0	0/0	0/0	0/0	0/0	0/0	0/0	0/0	0/0
rs569356	chr1	28810174	0/0	0/0	0/0	0/0	0/0	0/1	0/0	0/0	0/0	0/1	0/0	0/0	0/0
rs533123	chr1	28814643	1/1	1/1	0/1	1/1	1/1	0/1	1/1	1/1	1/1	0/1	1/1	1/1	1/1
rs536706	chr1	28820826	0/0	1/1	0/1	1/1	0/1	0/0	0/0	0/1	1/1	0/1	1/1	0/1	0/1
rs760589	chr1	28835953	1/1	0/0	0/1	0/0	0/1	0/1	1/1	0/1	0/0	0/0	0/0	0/1	0/1
rs521809	chr1	28850697	0/0	0/0	0/0	0/0	0/0	0/0	0/0	0/0	0/0	0/0	0/0	0/0	0/0
rs204081	chr1	28860207	0/0	0/0	0/0	0/0	0/0	0/0	0/0	0/0	0/0	0/0	0/0	0/0	0/0
rs4654327	chr1	28863626	0/1	0/0	0/1	0/0	0/1	1/1	0/0	0/1	0/0	1/1	0/1	0/1	1/1
rs2282440	chr1	30874473	0/0	0/0	0/0	0/0	0/0	0/0	0/0	0/0	0/0	0/0	0/0	0/0	0/0
rs2491132	chr1	30876800	0/0	0/0	0/0	0/1	0/0	0/0	0/0	0/1	0/0	0/0	0/1	0/1	0/0
rs324420	chr1	46405089	0/1	0/0	0/1	0/0	0/0	0/0	0/0	0/0	0/0	0/0	0/0	0/1	0/0
rs977747	chr1	47219005	0/0	0/1	1/1	0/1	1/1	0/1	1/1	1/1	0/1	0/0	0/0	0/0	1/1
rs1799821	chr1	53210776	0/1	0/1	0/1	0/1	0/1	0/0	0/1	0/1	0/1	1/1	0/0	0/0	0/1
rs1799822	chr1	53213557	0/1	0/1	0/1	0/1	0/0	0/0	0/0	0/0	0/0	0/1	0/0	0/0	0/1
rs1572312	chr1	60952057	0/0	0/0	0/0	0/0	0/0	0/0	0/0	0/0	0/0	0/0	0/1	0/0	0/0
rs1137100	chr1	65570758	0/0	0/0	0/0	0/0	0/0	0/0	0/0	1/1	0/0	0/0	0/0	0/0	0/0
rs1137101	chr1	65592830	0/1	0/1	0/0	0/0	0/1	0/1	1/1	1/1	0/0	0/0	0/0	0/0	0/1
rs1023008	chr1	69938857	0/1	1/1	0/1	0/1	1/1	0/1	0/1	0/1	0/1	0/0	1/1	0/1	0/1
rs2568958	chr1	72299433	1/1	1/1	1/1	0/1	1/1	0/1	1/1	1/1	1/1	1/1	0/1	0/1	0/0
rs2815752	chr1	72346757	1/1	1/1	1/1	0/1	1/1	0/1	1/1	1/1	1/1	1/1	0/1	0/1	0/0
rs990871	chr1	72358030	1/1	1/1	1/1	0/1	1/1	1/1	1/1	1/1	1/1	1/1	0/1	0/1	0/0
rs1993709	chr1	72372846	1/1	1/1	1/1	0/1	1/1	1/1	1/1	1/1	1/1	1/1	0/1	1/1	0/1
rs1514175	chr1	74525960	0/1	0/1	0/1	0/0	1/1	0/1	0/0	0/0	0/1	0/1	0/1	0/1	1/1
rs1514174	chr1	74527379	0/1	0/1	0/1	0/0	0/1	0/1	0/0	0/0	0/1	0/0	0/1	0/1	1/1
rs7553158	chr1	74539554	0/1	0/1	0/1	0/0	0/1	0/1	0/0	0/0	0/1	0/0	0/1	0/1	1/1
rs12731181	chr1	78536904	0/1	1/1	0/1	0/0	0/1	0/0	0/0	0/0	0/0	0/0	0/0	0/0	0/0
rs1937020	chr1	78762271	0/0	0/0	0/0	0/1	0/0	0/1	0/1	0/1	1/1	1/1	1/1	1/1	0/1
rs10747478	chr1	96435899	0/0	0/0	0/0	0/0	0/0	0/0	0/0	0/0	0/0	0/0	0/0	0/0	0/0
rs1625579	chr1	98037378	1/1	1/1	0/1	1/1	1/1	1/1	1/1	1/1	1/1	1/1	1/1	1/1	1/1
rs10747502	chr1	99058491	1/1	1/1	1/1	1/1	0/1	1/1	1/1	1/1	1/1	0/1	1/1	1/1	1/1
rs10494067	chr1	107288236	0/0	0/0	0/0	0/0	0/0	0/0	0/1	0/0	0/0	0/0	0/0	0/0	0/0
rs646776	chr1	109275908	0/1	1/1	1/1	0/1	1/1	1/1	1/1	0/1	0/0	1/1	1/1	1/1	1/1
rs62623713	chr1	109476817	0/0	0/0	0/0	0/0	0/0	0/0	0/0	0/0	0/0	0/0	0/0	0/0	0/0
rs1049434	chr1	112913924	0/1	0/1	0/1	0/0	0/1	0/1	0/1	0/1	0/0	0/1	0/1	0/1	1/1
rs17602729	chr1	114693436	0/0	0/0	0/0	0/0	0/0	0/0	0/1	0/0	0/0	0/1	0/1	0/0	0/0
rs6330	chr1	115286692	0/1	1/1	0/1	1/1	0/0	0/0	1/1	0/1	0/0	1/1	0/0	0/1	0/1
rs6587515	chr1	150636412	0/0	0/1	0/0	0/0	0/0	0/0	0/0	0/0	0/0	0/0	0/0	0/0	0/0
rs6686886	chr1	156386688	1/1	1/1	1/1	0/1	0/1	1/1	1/1	1/1	1/1	1/1	1/1	0/1	1/1
rs6334	chr1	156876441	0/0	0/1	0/0	0/1	0/1	0/0	0/1	0/0	0/0	0/1	0/0	0/1	0/1
rs1205	chr1	159712443	0/0	1/1	0/0	0/1	0/0	0/1	0/0	1/1	0/0	0/1	0/1	0/0	0/1
rs5082	chr1	161223893	1/1	0/0	0/1	0/1	0/1	0/0	1/1	0/1	1/1	0/1	1/1	0/1	0/1
rs145204276	chr1	173868254	0/0	0/0	0/0	0/0	0/0	0/0	0/0	0/0	0/0	0/0	0/0	0/0	0/0
rs767053	chr1	173934599	0/0	0/0	0/0	0/0	0/0	0/1	0/0	0/1	0/0	0/0	0/0	0/0	0/0
rs516636	chr1	177886382	0/1	0/0	0/0	0/0	0/1	0/0	0/0	1/1	0/0	0/0	0/0	0/1	0/1
rs574367	chr1	177904075	0/1	0/0	0/0	0/0	0/1	0/0	0/0	1/1	0/0	0/0	0/0	0/1	0/1
rs543874	chr1	177920345	0/1	0/0	0/0	0/0	0/1	0/0	0/0	1/1	0/0	0/0	0/0	0/1	0/1
rs591120	chr1	177933618	1/1	0/1	0/1	0/1	1/1	1/1	0/1	1/1	0/1	0/0	0/1	1/1	0/1
rs10913469	chr1	177944384	0/1	0/0	0/0	0/0	0/1	0/0	0/0	1/1	0/0	0/0	0/0	0/1	0/1
rs55946907	chr1	180161588	0/0	0/0	0/0	0/0	0/0	0/0	0/0	0/0	0/0	0/0	0/1	0/0	0/1
rs704326	chr1	181790521	0/1	0/0	0/0	1/1	0/0	0/0	0/1	0/1	0/1	0/0	0/0	0/0	0/1
rs10911902	chr1	186663185	0/1	0/1	0/1	0/0	0/0	0/0	0/0	0/1	0/0	0/1	0/0	0/0	0/1
rs10921078	chr1	192089892	0/0	0/0	0/0	0/0	0/0	0/1	0/1	0/0	0/0	0/0	0/0	0/0	0/0
rs2025934	chr1	193765770	0/1	0/0	0/0	0/0	0/0	0/0	0/0	0/0	0/0	0/0	0/1	0/0	0/0
rs846910	chr1	209701909	0/1	1/1	1/1	1/1	1/1	1/1	1/1	1/1	1/1	0/1	1/1	1/1	1/1
rs45487298	chr1	209706872	0/0	0/0	0/0	0/0	0/0	0/0	0/0	0/0	0/0	0/0	0/0	0/0	0/0
rs12086634	chr1	209706914	0/0	0/1	0/0	0/0	0/0	0/1	1/1	0/1	0/1	0/0	0/0	0/1	0/1
rs6752	chr1	209734755	0/0	0/1	0/0	0/0	0/0	0/1	1/1	0/1	0/1	0/0	0/0	0/1	0/1
rs2605100	chr1	219470882	1/1	1/1	1/1	0/1	0/1	1/1	1/1	1/1	1/1	1/1	0/1	0/1	1/1
rs10916025	chr1	226668188	0/1	0/0	0/0	0/0	0/0	0/0	0/1	0/0	0/0	0/1	0/0	1/1	0/0
rs699	chr1	230710048	0/1	1/1	0/1	0/1	0/0	0/1	0/1	0/1	0/1	0/1	0/0	1/1	1/1
rs1805087	chr1	236885200	0/0	0/1	0/1	0/0	1/1	0/0	1/1	0/0	0/0	0/0	0/0	0/0	0/0
rs7531957	chr1	237626356	0/0	0/0	0/0	0/0	0/0	0/0	0/0	0/0	0/1	0/0	0/0	0/0	0/0
rs12145833	chr1	243320452	0/0	0/0	0/1	0/0	0/0	0/0	0/0	0/0	0/0	0/0	0/0	0/0	0/0
rs1578862	chr1	247264315	0/0	0/1	1/1	0/0	0/0	0/1	0/1	0/0	0/1	0/0	0/1	1/1	0/1
rs2165953	chr10	4674350	1/1	0/1	0/1	0/0	1/1	1/1	0/1	1/1	0/1	1/1	1/1	1/1	0/1
rs2296135	chr10	5952731	0/1	0/1	0/1	1/1	1/1	1/1	0/1	1/1	0/0	0/0	1/1	1/1	0/0
rs2228059	chr10	5960405	0/1	0/1	0/1	1/1	1/1	0/1	0/1	0/1	0/0	0/0	1/1	1/1	0/1
rs17147135	chr10	10042603	0/0	0/0	0/0	0/0	0/0	0/0	0/0	0/1	0/0	0/1	0/0	0/0	0/0
rs11257754	chr10	12381108	0/0	0/1	0/0	0/0	0/1	0/1	1/1	0/1	0/1	0/0	0/0	0/0	0/1
rs75263140	chr10	12660570	0/0	0/0	0/0	0/0	0/0	0/0	0/0	0/0	0/0	0/0	0/0	0/0	0/0
rs7919823	chr10	21747562	0/0	0/0	0/0	0/0	0/0	0/0	0/0	0/0	0/0	0/0	0/0	0/0	0/0
rs7903144	chr10	21768476	0/0	0/0	0/0	0/0	0/0	0/0	0/0	0/0	0/0	0/0	0/0	0/0	0/0
rs12257323	chr10	22205214	0/0	0/0	0/0	0/0	0/0	0/0	0/0	0/0	0/0	0/0	0/0	0/0	0/1
rs7094131	chr10	22558510	0/1	1/1	1/1	0/1	1/1	1/1	1/1	1/1	1/1	1/1	0/1	1/1	0/1
rs1531550	chr10	35175850	0/1	0/0	0/0	0/0	0/0	0/0	0/1	0/0	0/0	0/0	0/0	0/0	1/1
rs884880	chr10	50404231	0/0	0/0	0/0	0/0	0/0	0/0	0/0	1/1	0/1	0/0	0/1	1/1	0/0
rs1937	chr10	58385582	0/0	0/0	0/0	0/0	0/0	0/0	0/0	0/0	0/0	0/1	0/1	0/1	0/0
rs2306604	chr10	58388932	0/1	0/1	1/1	0/0	1/1	0/0	0/1	0/1	0/1	0/1	0/1	1/1	1/1
rs1049432	chr10	58395360	0/0	0/0	0/1	0/0	1/1	0/0	0/0	0/0	0/0	0/1	0/1	0/1	0/0
rs4746598	chr10	66549410	0/0	0/0	0/0	0/0	0/0	0/0	0/0	0/0	0/0	0/0	0/0	0/0	0/0
rs3763679	chr10	73475068	0/0	0/0	0/0	1/1	0/0	0/0	0/0	0/0	0/0	0/0	0/0	0/0	0/0
rs2043090	chr10	75538851	0/0	0/0	0/0	0/0	0/0	0/0	0/0	0/0	0/0	0/0	0/0	0/0	0/0
rs12261589	chr10	77781077	0/0	0/0	0/0	0/0	0/0	0/0	0/0	0/0	0/0	0/0	0/0	0/0	0/0
rs76765968	chr10	85934535	0/1	0/0	0/0	0/0	0/0	0/0	0/0	0/1	0/0	1/1	0/0	0/0	0/0
rs4934207	chr10	86434772	1/1	1/1	1/1	0/1	0/1	1/1	0/0	0/0	1/1	1/1	0/1	1/1	1/1
rs116454156	chr10	93587284	0/0	0/0	0/0	0/0	0/1	0/0	0/0	0/0	0/0	0/0	0/0	0/0	0/0
rs3824755	chr10	102836092	0/0	0/0	0/1	0/1	0/0	0/0	0/0	0/0	0/0	0/0	0/1	0/0	0/0
rs10786736	chr10	103089359	0/0	0/0	0/0	0/1	0/1	0/0	0/0	0/0	0/0	0/0	0/1	0/0	0/0
rs11191560	chr10	103109281	0/0	0/0	0/0	0/1	0/0	0/0	0/0	0/0	0/0	0/0	0/1	0/0	0/0
rs7903146	chr10	112998590	0/1	1/1	0/1	0/0	0/0	0/0	0/0	0/0	0/1	0/0	1/1	0/1	0/0
rs12255372	chr10	113049143	0/1	1/1	0/1	0/0	0/0	0/0	0/0	0/0	0/1	0/0	1/1	0/1	0/0
rs1801252	chr10	114044277	0/0	0/0	0/0	0/0	0/0	0/0	0/0	0/0	0/0	0/0	0/0	0/0	0/0
rs1801253	chr10	114045297	0/1	1/1	1/1	0/1	0/1	0/1	0/1	1/1	0/1	1/1	0/1	0/1	0/1
rs12773846	chr10	124587345	0/0	0/1	1/1	0/1	0/0	0/1	0/1	0/1	0/0	0/0	0/1	0/1	1/1
rs11245456	chr10	124995505	0/1	1/1	0/0	1/1	0/0	0/1	0/0	0/1	0/0	0/1	0/1	0/1	0/1
rs12771627	chr10	125002611	0/1	1/1	0/0	1/1	0/0	0/1	0/0	0/1	0/0	0/1	1/1	0/1	0/0
rs1561589	chr10	125007104	0/1	1/1	0/0	1/1	0/0	0/0	0/0	1/1	0/1	0/1	1/1	0/1	0/0
rs2008387	chr10	129650500	0/1	0/0	0/0	0/0	0/0	0/1	0/0	0/1	0/1	0/0	0/1	0/1	0/1
rs1800955	chr11	636784	1/1	1/1	0/1	0/1	0/1	1/1	0/0	0/1	1/1	0/1	0/0	0/1	0/1
rs680	chr11	2132404	0/0	1/1	0/1	0/1	0/1	1/1	0/0	0/1	0/1	0/0	1/1	0/1	1/1
rs163171	chr11	2799835	0/1	0/1	1/1	1/1	1/1	0/1	0/1	0/1	1/1	0/1	1/1	1/1	1/1
rs2237892	chr11	2818521	0/0	0/0	0/0	0/0	0/0	0/0	0/1	0/0	0/0	0/0	0/0	0/0	0/0
rs163184	chr11	2825839	0/1	0/0	1/1	0/0	0/0	0/1	0/0	0/1	0/1	0/1	0/1	0/0	0/1
rs10768683	chr11	5226561	0/1	1/1	0/1	0/1	1/1	0/1	0/1	1/1	0/1	0/1	1/1	1/1	0/1
rs72921001	chr11	6868417	0/1	0/0	0/1	0/1	0/0	1/1	0/0	0/0	0/0	0/1	0/1	0/0	1/1
rs12794714	chr11	14892029	0/0	0/1	0/1	1/1	1/1	0/0	1/1	0/0	0/1	0/1	0/1	1/1	0/1
rs10741657	chr11	14893332	0/0	0/1	0/1	1/1	1/1	0/0	1/1	0/1	0/1	1/1	1/1	1/1	0/1
rs1562902	chr11	14896670	0/0	0/1	0/1	1/1	1/1	0/0	1/1	0/1	0/1	0/1	0/1	1/1	1/1
rs10766197	chr11	14900334	0/0	0/1	0/1	1/1	1/1	0/0	1/1	0/0	0/0	0/1	0/1	1/1	1/1
rs5219	chr11	17388025	0/1	0/1	1/1	0/1	0/0	1/1	1/1	1/1	1/1	1/1	0/1	1/1	0/0
rs11025523	chr11	20356578	0/0	0/0	0/0	0/1	0/0	0/0	0/1	0/1	0/0	0/0	0/1	0/0	0/0
rs988712	chr11	27541835	0/0	0/0	0/0	0/0	0/0	0/0	0/0	0/0	0/1	1/1	0/0	0/0	0/0
rs4923461	chr11	27635363	0/0	0/0	0/0	0/0	0/0	0/0	0/0	0/0	0/0	1/1	0/0	0/0	0/0
rs11030099	chr11	27656036	0/0	0/0	0/0	0/0	0/0	0/0	0/0	0/0	0/0	1/1	0/0	0/0	0/0
rs11030100	chr11	27656039	0/0	0/0	0/0	0/0	0/0	0/0	0/0	0/0	0/0	1/1	0/0	0/0	0/0
rs6265	chr11	27658369	0/0	0/0	0/0	0/0	0/0	0/0	0/0	0/0	0/0	0/1	0/0	0/0	0/0
rs56164415	chr11	27700188	0/0	0/0	0/0	0/0	0/0	0/0	0/0	0/0	0/0	0/0	0/0	0/0	0/1
rs10767664	chr11	27704439	1/1	1/1	1/1	1/1	1/1	1/1	1/1	1/1	1/1	0/0	1/1	1/1	1/1
rs2030323	chr11	27706992	1/1	1/1	1/1	1/1	1/1	1/1	1/1	1/1	1/1	0/0	1/1	1/1	1/1
rs7943316	chr11	34438925	1/1	0/1	1/1	0/1	1/1	1/1	0/1	1/1	1/1	0/1	1/1	0/1	1/1
rs353625	chr11	35146999	0/1	1/1	0/1	1/1	1/1	1/1	1/1	1/1	1/1	1/1	0/1	1/1	1/1
rs11570094	chr11	47338155	0/0	0/1	1/1	0/1	0/0	0/0	0/1	1/1	0/0	0/1	0/1	0/0	0/1
rs1064608	chr11	47618877	0/0	0/1	1/1	0/1	0/0	0/0	0/1	1/1	0/0	0/1	0/0	0/0	0/1
rs3817334	chr11	47629441	0/0	0/1	1/1	0/1	0/0	0/0	0/1	1/1	0/0	0/1	0/0	0/0	0/1
rs10838738	chr11	47641497	0/0	0/1	1/1	0/1	0/0	0/0	0/1	1/1	0/0	0/1	0/0	0/0	0/1
rs1800169	chr11	58624028	0/1	0/1	0/0	0/0	0/0	0/0	0/0	0/0	0/0	0/0	0/0	0/0	0/0
rs198457	chr11	61704206	0/0	0/0	0/0	0/0	0/0	0/0	0/0	0/0	0/0	0/0	0/0	0/0	0/0
rs200039730	chr11	64314359	0/0	0/0	0/0	0/0	0/0	0/0	0/0	0/0	0/0	0/0	0/0	0/0	0/0
rs119103258	chr11	64746796	0/0	0/0	0/0	0/0	0/0	0/0	0/0	0/0	0/0	0/0	0/0	0/0	0/0
rs116987552	chr11	64759751	0/0	0/0	0/0	0/0	0/0	0/0	0/0	0/0	0/0	0/0	0/0	0/0	0/0
rs3200401	chr11	65504361	0/1	0/0	0/0	0/0	0/0	0/0	1/1	0/0	0/0	0/0	0/0	0/0	0/1
rs564343	chr11	66127695	0/1	0/0	1/1	0/1	0/1	0/0	1/1	0/1	1/1	0/1	1/1	0/0	0/1
rs1815739	chr11	66560624	0/1	0/1	0/1	0/1	0/1	0/1	1/1	0/1	0/0	0/1	1/1	1/1	0/1
rs12785878	chr11	71456403	0/1	1/1	0/1	1/1	1/1	0/1	0/1	0/0	1/1	1/1	0/1	0/0	1/1
rs660339	chr11	73978059	0/1	0/0	0/1	1/1	0/1	0/0	0/0	0/1	0/0	0/0	0/1	0/1	1/1
rs659366	chr11	73983709	0/1	0/0	0/1	0/1	0/1	0/0	0/0	0/1	0/0	0/0	0/1	0/1	1/1
rs1800849	chr11	74009120	0/0	0/1	0/1	0/0	0/1	0/0	0/0	0/0	0/0	0/0	0/0	0/0	1/1
rs1943345	chr11	83165228	0/0	0/0	0/0	0/0	0/1	0/0	0/0	0/1	0/0	0/1	0/0	0/1	0/0
rs10830963	chr11	92975544	0/0	0/0	0/1	0/0	0/1	0/0	0/1	0/0	0/0	0/1	0/1	0/1	0/0
rs2155209	chr11	94417624	0/1	0/0	0/1	0/0	0/1	0/1	0/0	0/0	0/1	0/1	0/0	0/1	0/1
rs13447720	chr11	94432160	0/0	0/0	0/0	0/0	0/1	0/0	0/1	0/1	0/1	0/0	0/1	0/0	0/0
rs499952	chr11	94449826	0/0	0/1	0/1	1/1	0/0	0/1	0/1	0/0	0/0	0/1	0/1	0/1	0/1
rs11217223	chr11	98852486	0/0	0/0	0/1	0/0	0/0	0/0	0/1	0/0	0/0	0/0	0/0	0/0	0/0
rs11601239	chr11	105685872	0/0	0/1	1/1	0/0	0/1	1/1	0/1	0/1	0/1	1/1	0/0	1/1	0/1
rs1800497	chr11	113400106	0/0	0/1	0/0	0/0	0/0	0/0	0/0	0/1	0/0	0/1	0/0	0/1	0/1
rs6278	chr11	113410002	0/0	0/1	0/0	0/0	0/0	0/0	0/0	0/1	0/0	0/1	0/0	0/0	0/0
rs6277	chr11	113412737	0/1	0/1	1/1	0/0	0/0	0/1	1/1	0/1	0/1	0/0	0/1	0/1	1/1
rs6275	chr11	113412755	0/1	1/1	1/1	0/0	0/0	0/1	1/1	1/1	0/1	0/1	0/1	0/1	1/1
rs2283265	chr11	113414814	0/0	0/0	0/0	0/0	0/0	0/0	0/0	0/1	0/0	0/1	0/0	0/0	0/0
rs1799732	chr11	113475530	0/0	0/0	0/0	0/0	0/0	0/0	0/0	0/0	0/0	0/0	0/0	0/0	0/0
rs2256292	chr11	114297217	1/1	0/0	0/1	0/1	0/1	0/1	1/1	1/1	1/1	0/0	1/1	1/1	0/0
rs6589488	chr11	115226236	1/1	1/1	1/1	1/1	1/1	1/1	1/1	1/1	0/1	1/1	1/1	1/1	1/1
rs964184	chr11	116778201	1/1	1/1	1/1	1/1	0/1	1/1	1/1	1/1	0/0	0/1	0/1	1/1	0/1
rs5128	chr11	116832924	1/1	1/1	1/1	1/1	1/1	1/1	1/1	1/1	0/1	1/1	1/1	1/1	1/1
rs5069	chr11	116837538	0/0	0/0	0/0	0/0	0/0	0/0	0/0	0/0	0/0	0/0	0/0	0/0	0/0
rs670	chr11	116837697	0/0	0/0	0/1	0/0	1/1	0/0	0/0	0/0	0/1	0/1	0/0	0/1	0/1
rs236918	chr11	117220893	1/1	0/0	0/0	0/0	0/0	0/0	0/0	0/1	0/0	0/0	0/0	0/0	1/1
rs3808986	chr11	130040689	0/0	0/0	0/0	0/0	0/0	0/0	1/1	0/0	0/0	0/0	0/1	0/0	0/0
rs1006737	chr12	2236129	0/1	1/1	0/0	0/0	0/0	0/0	0/0	0/0	0/1	0/0	0/1	0/0	0/0
rs6332	chr12	5494466	0/1	0/1	0/0	1/1	1/1	0/0	1/1	0/1	0/1	0/1	0/1	0/0	0/1
rs6489630	chr12	5495458	1/1	0/1	0/1	1/1	1/1	0/1	1/1	1/1	1/1	1/1	1/1	1/1	1/1
rs7307889	chr12	5872187	0/0	0/0	0/0	0/0	0/0	0/0	0/0	0/0	0/0	0/0	0/0	0/0	0/0
rs5443	chr12	6845711	0/1	0/0	0/0	0/1	0/1	0/1	0/0	1/1	0/1	0/0	0/0	1/1	0/0
rs10743966	chr12	11594182	0/0	0/1	0/0	0/0	0/1	0/0	0/0	0/0	1/1	0/0	0/0	0/0	0/0
rs10841287	chr12	19626859	0/0	0/1	0/0	0/1	0/1	0/1	0/0	0/1	0/0	0/1	0/0	0/1	0/0
rs11046207	chr12	21843111	0/0	0/1	0/0	0/0	0/0	0/1	0/0	0/0	0/0	0/0	0/0	0/0	0/0
rs7975232	chr12	47845054	0/1	1/1	1/1	0/0	0/1	0/1	0/0	0/1	0/1	1/1	0/0	1/1	0/1
rs1544410	chr12	47846052	0/1	1/1	1/1	0/0	0/1	0/1	0/0	0/1	0/1	1/1	0/0	0/1	0/0
rs2228570	chr12	47879112	0/1	0/1	0/1	1/1	1/1	1/1	0/0	1/1	0/0	0/1	0/1	0/1	1/1
rs7138803	chr12	49853685	0/0	0/1	0/1	0/0	1/1	0/1	0/0	1/1	0/1	0/0	0/1	0/1	0/0
rs7132908	chr12	49869365	0/1	0/1	0/1	0/0	1/1	0/1	0/0	1/1	0/1	0/0	0/1	0/1	0/0
rs11614913	chr12	53991815	0/1	0/1	0/1	0/1	0/0	0/1	0/1	0/0	0/0	0/0	0/0	0/1	0/0
rs4622308	chr12	56075401	0/0	0/0	0/0	0/0	0/0	0/0	0/0	0/0	0/0	0/0	0/0	0/0	0/0
rs11174202	chr12	61858476	1/1	0/0	1/1	0/0	0/1	0/0	0/1	0/1	0/0	0/1	0/0	0/1	1/1
rs1480474	chr12	65933163	0/1	0/1	1/1	0/0	1/1	1/1	1/1	1/1	0/1	0/1	0/1	0/1	1/1
rs1351394	chr12	65958046	0/1	0/1	1/1	0/0	1/1	1/1	1/1	1/1	0/1	0/1	1/1	0/1	1/1
rs7138102	chr12	65960111	0/1	0/0	1/1	0/0	1/1	1/1	0/1	1/1	0/1	0/1	0/1	0/1	1/1
rs1042725	chr12	65964567	0/1	0/0	1/1	0/0	1/1	1/1	0/1	1/1	0/1	0/1	1/1	0/1	1/1
rs7970350	chr12	65966384	0/1	0/0	1/1	0/0	1/1	1/1	0/1	1/1	0/1	0/1	1/1	0/1	1/1
rs35767	chr12	102481791	1/1	1/1	1/1	0/1	0/1	0/0	0/0	0/1	0/1	0/1	1/1	1/1	0/0
rs12322695	chr12	116761609	0/0	0/0	0/0	0/0	0/0	0/0	0/0	0/0	0/0	0/0	0/0	0/0	0/0
rs11069062	chr12	118725274	0/0	0/0	0/0	0/0	0/0	0/0	0/0	0/0	0/1	0/1	0/0	0/0	0/0
rs3794205	chr12	121249126	0/0	0/1	0/0	0/0	0/0	0/0	0/1	0/1	0/0	0/0	0/1	0/0	0/1
rs4298948	chr12	121838349	0/0	0/0	0/0	0/0	0/0	0/0	0/0	0/0	0/0	0/0	0/0	0/0	0/0
rs117957029	chr12	127200688	0/0	0/0	0/0	0/0	0/0	0/0	0/0	0/0	0/0	0/0	0/0	0/0	0/0
rs14035	chr12	130876696	0/0	0/1	0/1	0/0	0/0	0/0	0/1	1/1	0/0	0/1	0/0	1/1	0/0
rs7981781	chr13	27925825	0/0	0/0	0/0	0/0	0/0	0/1	0/0	0/0	0/1	0/0	0/1	0/1	0/0
rs627871	chr13	34331918	0/0	0/0	0/0	0/0	0/0	0/0	0/0	0/0	0/0	0/0	0/0	0/0	0/0
rs9548934	chr13	39789504	0/0	0/0	0/0	0/0	0/0	0/0	0/0	0/0	0/0	0/0	0/0	0/0	0/0
rs6311	chr13	46897343	1/1	0/1	0/0	0/1	0/0	0/0	1/1	0/1	0/0	0/0	0/0	0/1	0/1
rs12583882	chr13	46999481	0/0	0/1	1/1	0/0	0/0	0/0	0/1	0/1	0/0	0/0	0/1	0/1	0/0
rs10397	chr13	47942710	0/0	0/0	0/0	0/0	0/1	0/0	0/1	0/1	0/0	0/0	0/1	0/0	1/2
rs7337521	chr13	48075865	0/1	0/0	0/0	0/0	0/1	0/0	0/0	0/1	0/0	0/1	0/1	0/0	0/1
rs9568867	chr13	53533217	0/1	0/0	1/1	0/0	0/0	0/1	0/0	0/0	0/1	0/0	0/0	0/0	0/0
rs1370053	chr13	57940531	1/1	1/1	1/1	1/1	1/1	1/1	1/1	1/1	1/1	1/1	1/1	1/1	1/1
rs4886088	chr13	58554392	0/0	0/0	0/1	0/1	0/0	1/1	0/0	0/1	0/0	0/0	0/1	0/0	0/0
rs11350613	chr13	79615935	0/0	0/0	0/0	0/0	0/0	0/0	0/0	0/0	0/0	0/0	0/0	0/0	0/0
rs9531686	chr13	84975601	0/1	0/1	0/0	1/1	0/1	1/1	0/1	0/1	1/1	0/1	0/0	0/0	0/1
rs852918	chr13	91464969	1/1	1/1	1/1	1/1	1/1	1/1	0/1	1/1	1/1	1/1	1/1	1/1	0/1
rs7328464	chr13	91849410	0/1	0/0	0/0	0/0	0/1	0/0	0/1	0/0	0/0	0/0	0/0	0/0	0/0
rs9517302	chr13	98443780	1/1	0/1	0/1	0/1	1/1	1/1	1/1	0/1	0/1	1/1	1/1	0/1	0/1
rs4772341	chr13	100909174	0/1	0/1	0/1	0/0	1/1	0/1	0/1	0/0	1/1	0/0	0/1	1/1	0/1
rs12866352	chr13	106392726	0/0	0/0	0/0	0/0	0/0	0/0	0/0	0/0	0/0	0/0	0/0	0/0	0/1
rs957788	chr13	107604872	0/0	0/1	0/0	0/0	0/0	0/1	0/1	0/1	0/0	0/0	0/1	0/1	0/1
rs1953558	chr14	20230080	0/1	0/1	0/1	0/1	0/1	1/1	0/1	0/1	0/1	0/0	0/1	0/0	0/0
rs2229309	chr14	24369877	0/1	1/1	1/1	0/1	0/1	0/1	0/0	0/1	0/1	0/1	0/1	1/1	0/0
rs11850957	chr14	25010336	0/0	0/1	0/0	0/0	0/0	0/1	0/1	0/1	0/0	0/1	0/1	0/1	0/0
rs10132280	chr14	25458973	1/1	0/0	1/1	0/1	0/0	0/1	0/1	0/1	1/1	1/1	0/1	0/1	0/0
rs12885454	chr14	29267632	0/0	0/0	0/1	1/1	0/0	0/1	0/0	0/1	0/0	0/1	0/0	0/0	0/0
rs11847697	chr14	30045906	0/0	0/0	0/0	0/1	0/0	0/0	0/0	0/1	0/0	0/0	0/0	0/0	0/0
rs2383378	chr14	32813264	0/0	0/0	0/1	0/0	0/0	1/1	0/1	1/1	0/1	0/0	1/1	0/1	0/1
rs1956197	chr14	59010696	0/0	1/1	1/1	0/1	1/1	1/1	1/1	1/1	1/1	1/1	1/1	1/1	1/1
rs11549465	chr14	61740839	0/0	0/1	1/1	0/0	0/0	0/0	0/1	0/0	0/0	0/0	0/0	1/1	0/0
rs869834	chr14	62710426	0/1	0/1	0/1	1/1	0/1	0/0	1/1	0/0	1/1	0/0	1/1	0/1	0/0
rs1152595	chr14	64208263	0/0	0/1	1/1	0/1	0/1	1/1	0/0	0/1	0/0	1/1	0/0	0/1	0/1
rs915057	chr14	64219489	0/0	0/1	1/1	0/1	1/1	1/1	0/1	0/1	0/0	1/1	1/1	1/1	0/1
rs928554	chr14	64227477	0/0	0/1	1/1	0/1	1/1	1/1	0/1	0/1	0/0	1/1	1/1	1/1	0/1
rs4986938	chr14	64233098	0/0	0/1	0/0	0/0	0/1	1/1	0/1	0/1	0/0	0/1	1/1	1/1	0/1
rs1256049	chr14	64257333	0/0	0/0	0/0	0/0	0/0	0/0	0/0	0/0	0/0	0/0	0/0	0/0	0/0
rs6573552	chr14	64283515	0/0	0/1	1/1	0/1	0/1	1/1	0/1	0/1	0/0	1/1	1/1	1/1	0/1
rs2236225	chr14	64442127	0/1	1/1	0/0	0/0	0/1	0/1	1/1	0/1	1/1	0/0	0/1	1/1	0/0
rs3783988	chr14	77268237	0/0	0/0	0/0	0/0	0/1	0/0	1/1	0/0	1/1	0/0	1/1	0/1	0/1
rs10150332	chr14	79470621	0/0	0/0	0/0	0/1	1/1	0/1	0/0	0/0	0/0	0/0	0/0	0/0	0/0
rs7144481	chr14	81144598	1/1	0/1	1/1	0/1	1/1	0/0	1/1	0/1	0/1	1/1	1/1	1/1	0/1
rs6562	chr14	91225127	0/0	0/0	0/0	0/0	0/0	0/0	0/0	0/1	0/0	0/1	0/0	0/1	0/0
rs3742330	chr14	95087025	1/1	0/0	0/0	0/0	0/1	0/0	0/1	1/1	0/0	0/0	0/1	0/0	0/0
rs4384548	chr14	96178806	1/1	1/1	1/1	1/1	1/1	1/1	1/1	1/1	1/1	1/1	1/1	1/1	1/1
rs1799722	chr14	96204802	0/0	1/1	0/0	0/0	0/1	0/0	0/0	0/1	0/1	0/1	0/1	0/0	0/0
rs1130214	chr14	104793397	0/0	0/0	0/1	0/1	0/0	0/0	0/1	0/1	0/0	0/0	0/0	0/0	1/1
rs824205	chr15	23762924	1/1	0/1	0/0	1/1	1/1	0/1	0/1	1/1	0/1	1/1	0/1	1/1	1/1
rs3101639	chr15	27524949	0/1	0/1	0/1	0/1	0/1	0/1	0/1	0/1	1/1	0/1	0/0	1/1	0/1
rs3097493	chr15	27525387	0/1	0/1	0/1	0/1	0/1	0/1	0/1	0/1	1/1	0/1	0/0	1/1	0/1
rs3101636	chr15	27525567	0/1	0/1	0/1	0/1	0/1	0/1	0/1	0/1	1/1	0/1	0/0	1/1	0/1
rs140679	chr15	27527530	0/1	0/1	0/1	0/1	0/1	0/1	0/1	0/1	1/1	0/1	0/0	1/1	0/1
rs2303879	chr15	27527746	0/1	0/1	0/1	0/1	0/1	0/1	0/1	0/1	1/1	0/1	0/0	1/1	0/1
rs3097490	chr15	27528645	0/1	0/1	0/1	0/1	0/1	0/1	0/1	0/1	1/1	0/1	0/0	1/1	0/1
rs8031031	chr15	50305127	0/0	0/0	0/0	0/0	0/0	0/0	0/0	0/0	0/0	0/0	0/0	0/0	0/0
rs7181866	chr15	50318595	0/0	0/0	0/0	0/0	0/0	0/0	0/0	0/0	0/0	0/0	0/0	0/0	0/0
rs12594956	chr15	50329637	0/1	0/1	1/1	0/1	1/1	0/1	1/1	1/1	0/1	0/1	1/1	0/1	1/1
rs2070895	chr15	58431740	0/0	0/0	0/0	0/0	0/0	1/1	0/0	0/1	0/1	0/0	0/0	1/1	0/1
rs12591650	chr15	60768508	0/0	0/1	0/0	0/0	0/0	0/0	0/0	0/0	0/0	0/1	1/1	0/0	0/1
rs11858577	chr15	66774225	0/1	0/0	0/1	0/1	0/0	0/0	0/1	0/0	0/0	0/0	0/0	0/0	0/0
rs997295	chr15	67724005	0/0	0/1	0/1	0/1	1/1	0/0	0/0	0/1	0/1	0/0	1/1	0/1	1/1
rs4776970	chr15	67788548	0/1	0/1	0/1	0/1	1/1	1/1	1/1	0/1	0/1	1/1	0/0	0/1	0/0
rs2241423	chr15	67794500	0/1	0/1	0/0	0/0	0/0	0/1	1/1	0/1	0/1	1/1	0/0	0/1	0/0
rs730180	chr15	72715552	1/1	1/1	0/0	0/1	0/0	1/1	0/1	0/0	0/1	1/1	0/1	0/1	1/1
rs762551	chr15	74749576	1/1	0/1	0/0	0/1	1/1	0/1	1/1	1/1	0/1	1/1	1/1	1/1	1/1
rs950169	chr15	84037709	0/0	0/1	0/0	0/0	1/1	0/1	0/1	0/1	0/0	0/0	1/1	0/0	0/0
rs7180942	chr15	88131345	0/1	0/0	0/0	0/1	0/1	1/1	1/1	1/1	0/0	0/1	0/1	0/1	0/1
rs1052700	chr15	89665079	0/1	0/0	0/1	0/1	0/1	0/1	0/1	0/0	0/1	0/0	0/0	1/1	0/0
rs2304795	chr15	89667032	0/1	0/0	0/0	0/1	0/0	0/0	0/0	0/0	0/1	0/0	0/0	0/0	0/1
rs894160	chr15	89668592	0/1	0/0	1/1	0/1	0/1	0/1	0/1	0/0	0/0	0/0	1/1	1/1	1/1
rs2304794	chr15	89669903	1/1	1/1	1/1	1/1	1/1	1/1	1/1	1/1	0/1	1/1	1/1	1/1	1/1
rs2289487	chr15	89673865	0/1	0/1	0/0	0/1	0/1	0/1	0/1	1/1	0/1	0/1	0/0	0/0	0/0
rs4702	chr15	90883330	0/0	0/1	1/1	0/1	0/1	1/1	0/1	0/0	0/1	0/1	1/1	0/1	1/1
rs2173063	chr15	92588402	0/0	0/0	0/0	0/0	0/0	0/0	0/0	0/0	0/0	0/0	0/0	0/0	0/0
rs1464430	chr15	98924705	0/1	0/1	1/1	0/1	0/0	0/1	0/1	0/1	0/1	0/0	1/1	0/0	0/0
rs540	chr16	370907	0/1	0/1	0/1	0/1	0/0	1/1	0/0	0/0	0/1	0/1	0/0	1/1	0/0
rs758747	chr16	3577357	0/0	0/0	0/1	0/0	0/0	0/0	0/0	0/1	0/0	1/1	1/1	0/1	0/1
rs870288	chr16	5535851	0/1	0/0	0/1	1/1	0/1	0/1	0/1	1/1	0/1	0/1	0/0	0/1	0/1
rs7191721	chr16	7575790	1/1	0/0	0/1	1/1	0/1	0/0	0/1	0/1	0/0	1/1	0/1	0/1	0/1
rs3219790	chr16	10183568	0/0	0/0	0/0	0/0	0/0	0/0	0/0	0/0	0/0	0/0	0/0	0/0	0/0
rs739564	chr16	19728915	0/0	0/0	0/0	1/1	0/0	0/1	0/0	0/0	0/0	0/0	0/0	0/0	0/1
rs12444979	chr16	19922278	0/0	0/0	0/0	0/1	0/0	0/0	0/0	0/0	0/1	0/0	0/0	0/0	0/1
rs4401050	chr16	23206081	0/1	0/1	0/1	0/1	0/1	0/0	0/1	0/1	0/0	0/1	0/0	0/0	0/1
rs3785368	chr16	23309459	0/1	0/0	1/1	0/1	0/1	0/1	0/1	0/0	0/0	0/0	0/0	0/0	1/1
rs239345	chr16	23334617	0/1	0/1	1/1	0/1	1/1	0/1	0/1	1/1	0/0	0/0	0/0	0/1	1/1
rs7195386	chr16	24567137	0/1	0/1	1/1	0/1	0/1	1/1	1/1	0/1	0/1	1/1	0/1	0/0	0/1
rs4788099	chr16	28844406	0/1	0/1	0/0	0/1	0/1	0/0	0/1	0/0	0/1	0/0	0/0	0/1	0/0
rs4788102	chr16	28862077	0/1	0/1	0/0	0/1	0/1	0/0	0/1	0/0	0/1	0/0	0/0	0/1	0/0
rs7498665	chr16	28871920	0/1	0/1	0/0	0/1	0/1	0/0	0/1	0/0	0/1	0/0	0/0	0/1	0/0
rs7359397	chr16	28874338	0/1	0/1	0/0	0/1	0/1	0/0	0/1	0/0	0/1	0/0	0/0	0/1	0/0
rs11865138	chr16	49770018	0/1	0/1	0/0	0/0	0/1	0/1	0/1	1/1	1/1	0/1	0/1	1/1	0/0
rs1421084	chr16	53723828	0/0	0/0	0/0	0/0	0/0	0/0	0/0	0/0	0/0	0/0	0/0	0/0	0/0
rs9940128	chr16	53766842	0/1	0/0	1/1	0/1	1/1	0/0	0/0	0/0	0/0	1/1	0/0	0/1	1/1
rs1421085	chr16	53767042	0/1	0/0	1/1	0/0	1/1	0/0	0/0	0/0	0/0	1/1	0/0	0/1	1/1
rs1558902	chr16	53769662	0/1	0/0	1/1	0/0	1/1	0/0	0/0	0/0	0/0	1/1	0/0	0/1	1/1
rs1121980	chr16	53775335	0/1	0/0	1/1	0/1	1/1	0/0	0/0	0/0	0/0	1/1	0/0	0/1	1/1
rs62033400	chr16	53777876	0/1	0/0	1/1	0/0	1/1	0/0	0/0	0/0	0/0	1/1	0/0	0/1	1/1
rs17817449	chr16	53779455	0/1	0/0	1/1	0/0	1/1	0/0	0/0	0/0	0/0	1/1	0/0	0/1	1/1
rs8050136	chr16	53782363	0/1	0/0	1/1	0/0	1/1	0/0	0/0	0/0	0/0	1/1	0/0	0/1	1/1
rs3751812	chr16	53784548	0/1	0/0	1/1	0/0	1/1	0/0	0/0	0/0	0/0	1/1	0/0	0/1	1/1
rs9936385	chr16	53785257	0/1	0/0	1/1	0/0	1/1	0/0	0/0	0/0	0/0	1/1	0/0	0/1	1/1
rs9939609	chr16	53786615	0/1	0/0	1/1	0/0	1/1	0/0	0/0	0/0	0/0	1/1	0/0	0/1	1/1
rs7202116	chr16	53787703	0/1	0/0	1/1	0/0	1/1	0/0	0/0	0/0	0/0	1/1	0/0	0/1	1/1
rs7185735	chr16	53788739	0/1	0/0	1/1	0/0	1/1	0/0	0/0	0/0	0/0	1/1	0/0	0/1	1/1
rs9941349	chr16	53791576	0/1	0/0	1/1	0/1	1/1	0/0	0/0	0/0	0/0	1/1	0/0	0/1	1/1
rs9930506	chr16	53796553	0/1	0/0	1/1	0/1	1/1	0/0	0/0	0/0	0/0	1/1	0/0	0/1	1/1
rs9922619	chr16	53797859	0/1	0/0	1/1	0/1	1/1	0/0	0/0	0/0	0/0	1/1	0/0	0/1	1/1
rs12149832	chr16	53808996	0/1	0/0	1/1	0/0	1/1	0/0	0/0	0/0	0/0	1/1	0/0	0/1	1/1
rs6499653	chr16	53843680	0/1	1/1	1/1	1/1	0/1	0/1	1/1	1/1	0/1	0/1	1/1	0/0	1/1
rs3764261	chr16	56959412	0/1	0/0	0/1	1/1	0/1	0/0	0/1	0/0	0/1	1/1	0/1	0/1	0/0
rs5030980	chr16	67483042	0/0	0/0	0/0	0/1	0/0	0/0	0/0	0/0	0/0	0/0	0/0	0/0	0/0
rs13338499	chr16	67486220	0/0	0/0	0/0	0/0	0/0	0/0	0/0	0/0	0/0	0/0	0/0	0/0	0/0
rs8050187	chr16	79152989	1/1	0/0	0/1	0/1	0/1	0/0	0/1	0/1	0/1	0/0	0/1	1/1	0/0
rs11645428	chr16	81225291	0/1	1/1	0/1	0/1	0/1	1/1	1/1	0/1	0/0	1/1	0/1	1/1	1/1
rs7458	chr16	84565924	1/1	1/1	1/1	0/1	1/1	0/1	1/1	1/1	0/1	1/1	1/1	1/1	0/1
rs4083242	chr16	86334920	1/1	0/1	0/0	1/1	0/1	1/1	0/0	0/1	0/1	0/0	0/1	0/1	1/1
rs9914578	chr17	2101842	0/1	0/0	0/0	0/1	0/0	0/0	0/0	0/1	0/0	0/0	0/0	0/1	0/0
rs230479	chr17	3371093	0/0	0/0	0/0	0/0	0/0	0/0	0/0	0/0	0/0	0/0	0/0	0/0	0/0
rs4790522	chr17	3566559	0/1	0/0	0/1	0/1	0/1	0/0	0/1	0/1	1/1	1/1	1/1	0/1	1/1
rs161364	chr17	3574518	0/0	1/1	0/1	0/0	0/0	0/1	0/0	0/1	0/1	0/1	0/1	0/0	0/0
rs8065080	chr17	3577153	0/1	0/0	0/0	1/1	1/1	0/1	1/1	0/0	0/0	0/1	0/1	1/1	0/1
rs58630086	chr17	6878094	0/0	0/0	0/0	0/0	0/0	0/0	0/0	0/0	0/0	0/0	0/0	0/0	0/0
rs5418	chr17	7281773	0/1	0/1	1/1	0/1	1/1	0/1	0/1	0/1	0/1	1/1	0/1	1/1	0/0
rs6502557	chr17	17057664	0/1	0/0	0/1	0/0	0/0	0/0	0/0	0/0	0/1	0/0	0/0	0/0	0/1
rs12325817	chr17	17583205	0/0	0/0	0/0	0/0	0/0	0/0	0/0	0/0	0/0	0/0	0/0	0/0	0/0
rs4584886	chr17	17992891	0/1	0/0	0/0	0/1	0/0	0/0	1/1	0/0	0/0	0/0	0/1	1/1	0/1
rs732928	chr17	21240761	0/1	0/1	0/1	0/1	0/0	1/1	1/1	0/1	0/1	0/1	0/1	0/1	0/0
rs9906595	chr17	38945127	1/1	1/1	1/1	1/1	1/1	1/1	1/1	1/1	1/1	1/1	1/1	1/1	1/1
rs2123685	chr17	39897636	0/0	0/0	0/0	0/0	0/0	0/0	0/0	0/0	0/0	0/0	0/0	0/0	0/0
rs2072446	chr17	49510457	0/1	0/1	0/0	0/0	0/0	0/0	0/0	0/1	0/0	0/0	0/0	0/0	0/0
rs1799752	chr17	63488530	0/0	0/0	0/0	0/0	0/0	0/0	0/0	0/0	0/0	0/0	0/0	0/0	0/0
rs4363	chr17	63497131	1/1	0/0	0/1	0/1	1/1	1/1	0/1	0/1	0/1	0/1	0/0	0/0	0/1
rs1799938	chr17	67056188	0/0	0/0	0/0	0/0	0/1	0/0	0/0	0/0	0/1	0/1	0/0	0/0	0/0
rs1466113	chr17	73169179	1/1	1/1	0/1	0/1	1/1	0/1	0/1	0/1	1/1	0/1	0/0	1/1	1/1
rs147480547	chr17	75740047	0/0	0/0	0/0	0/0	0/0	0/0	0/0	0/0	0/0	0/0	0/0	0/0	0/0
rs145976111	chr17	75742728	0/0	0/0	0/0	0/0	0/0	0/0	0/0	0/0	0/0	0/0	0/0	0/0	0/0
rs750367954	chr17	75756955	0/0	0/0	0/0	0/0	0/0	0/0	0/0	0/0	0/0	0/0	0/0	0/0	0/0
rs17483463	chr18	6007276	0/1	0/0	0/0	0/0	0/0	0/0	0/1	0/0	0/0	0/1	0/0	0/0	0/0
rs11545881	chr18	12274105	0/1	0/1	1/1	0/1	0/1	0/1	0/0	0/0	0/1	0/0	0/1	1/1	0/1
rs1805081	chr18	23560468	0/1	0/0	0/1	0/1	0/1	0/0	0/0	1/1	0/1	0/0	0/1	0/0	0/0
rs1788826	chr18	23574060	1/1	0/1	0/1	0/1	1/1	0/1	1/1	1/1	1/1	1/1	0/1	0/1	1/1
rs7231041	chr18	25813140	0/1	0/1	0/1	0/0	0/0	0/0	0/0	0/0	0/0	0/0	0/1	0/1	0/1
rs17798991	chr18	49594946	0/0	0/0	0/0	0/1	0/0	0/1	0/1	0/0	1/1	0/1	0/0	0/0	0/1
rs7234864	chr18	60067625	0/1	0/1	0/0	0/0	0/1	0/1	0/1	0/1	0/0	1/1	0/0	0/0	0/1
rs17700144	chr18	60144750	0/1	0/1	0/0	0/0	0/1	0/1	0/1	0/1	0/0	1/1	0/0	0/0	0/1
rs2331841	chr18	60161404	1/1	1/1	1/1	0/1	1/1	0/1	0/1	0/1	0/1	1/1	0/0	0/1	0/1
rs6567160	chr18	60161902	0/1	0/1	0/0	0/1	0/1	0/1	0/1	0/1	0/0	1/1	0/0	0/0	0/1
rs663129	chr18	60171168	0/1	0/1	0/0	0/1	0/1	0/1	0/1	0/1	0/0	1/1	0/0	0/0	0/1
rs571312	chr18	60172536	0/1	0/1	0/0	0/1	0/1	0/1	0/1	0/1	0/0	1/1	0/0	0/0	0/1
rs17782313	chr18	60183864	0/1	0/1	0/0	0/1	0/1	0/1	0/1	0/1	0/1	1/1	0/0	0/0	0/1
rs476828	chr18	60185354	0/1	0/1	0/0	0/1	0/1	0/1	0/1	0/1	0/1	1/1	0/0	0/0	0/1
rs8089364	chr18	60191596	0/1	0/1	0/0	0/1	0/1	0/1	0/1	0/1	0/0	1/1	0/0	0/0	0/1
rs489693	chr18	60215554	1/1	0/1	0/0	0/0	0/1	0/1	0/1	0/1	0/1	1/1	0/0	0/1	0/1
rs12970134	chr18	60217517	0/1	0/1	0/0	0/0	0/1	0/1	0/1	0/1	0/0	1/1	0/0	0/0	0/1
rs52820871	chr18	60371599	0/0	0/0	0/0	0/0	0/0	0/0	0/0	0/0	0/0	0/0	0/0	0/0	0/0
rs2229616	chr18	60372043	0/0	0/0	0/0	0/0	0/0	0/0	0/0	0/0	0/0	0/0	0/0	0/0	0/0
rs11872992	chr18	60373354	0/0	0/0	0/1	0/0	0/0	0/0	0/0	0/0	0/0	0/0	0/0	0/1	0/0
rs17066846	chr18	60377585	0/1	0/0	0/0	0/0	0/1	0/0	0/1	0/1	0/0	0/0	0/0	0/0	0/1
rs11873305	chr18	60381959	0/0	0/0	0/0	0/0	0/0	0/0	0/1	0/0	0/0	0/1	0/0	0/0	0/0
rs7227255	chr18	60388498	0/0	0/0	0/0	0/0	0/0	0/0	0/0	0/0	0/1	0/0	0/0	0/0	0/0
rs6566810	chr18	74496224	0/1	0/0	0/1	1/1	0/1	1/1	0/1	0/1	1/1	0/1	1/1	0/1	1/1
rs3764509	chr18	74499889	0/1	0/0	0/0	1/1	0/1	0/0	0/0	0/0	1/1	0/1	1/1	0/0	0/0
rs2346061	chr18	74533297	1/1	0/1	0/1	1/1	1/1	0/1	1/1	0/1	0/0	0/1	1/1	0/1	1/1
rs2887	chr18	74584901	0/1	0/1	0/1	0/1	0/0	1/1	0/1	0/1	0/1	0/1	1/1	1/1	0/1
rs62090893	chr18	75338379	0/0	0/0	0/0	0/0	0/0	0/0	0/0	0/0	0/0	0/0	0/0	0/0	0/0
rs12967884	chr18	78831635	0/0	0/1	0/0	0/0	0/0	0/1	0/0	0/0	0/0	0/1	0/0	0/0	0/0
rs891088	chr19	7184751	0/0	1/1	1/1	0/1	0/1	0/0	0/0	0/0	0/0	0/1	0/0	0/1	0/1
rs62112763	chr19	7220002	1/1	0/1	0/0	0/1	0/1	1/1	1/1	1/1	0/1	0/1	0/1	0/1	0/1
rs7248104	chr19	7224420	0/0	0/0	0/1	0/1	0/0	0/0	0/0	0/0	0/1	0/1	0/1	0/0	0/1
rs56149994	chr19	7242250	0/0	0/1	0/1	0/1	0/0	1/1	0/1	0/1	0/0	0/0	0/1	0/1	0/0
rs34124816	chr19	7668790	0/0	0/0	0/0	0/0	0/0	0/0	0/0	0/0	0/0	0/0	0/0	0/0	0/0
rs1862513	chr19	7668907	0/1	0/1	0/0	0/1	0/1	0/1	0/0	0/1	0/1	0/1	0/0	0/1	0/0
rs3219177	chr19	7669483	0/1	0/1	0/0	0/1	0/1	0/1	0/0	0/1	0/1	0/1	0/0	0/1	0/0
rs3745367	chr19	7669625	0/1	0/1	0/0	0/1	0/1	0/1	0/0	0/1	0/1	0/1	0/0	0/1	0/0
rs3219178	chr19	7670065	0/1	0/0	0/1	0/1	0/0	0/1	0/0	0/1	0/0	0/0	0/1	0/1	1/1
rs5020278	chr19	9214440	0/0	0/0	0/1	0/1	1/1	0/0	0/0	0/0	0/1	0/0	0/0	0/1	0/0
rs61729907	chr19	9214576	0/0	0/0	0/1	0/1	1/1	0/0	0/0	0/0	0/1	0/0	0/0	0/1	0/0
rs121908225	chr19	13365448	0/0	0/0	0/0	0/0	0/0	0/0	0/0	0/0	0/0	0/0	0/0	0/0	0/0
rs34282046	chr19	19194090	0/0	0/0	0/0	0/0	0/0	0/0	0/0	0/0	0/1	0/0	0/1	0/0	0/1
rs10424365	chr19	19199718	0/0	0/1	0/0	0/0	0/0	0/1	0/0	0/0	0/1	0/0	0/1	0/0	0/1
rs1984771	chr19	21508995	0/0	0/1	0/0	0/1	1/1	0/0	0/1	0/0	0/0	0/0	0/0	0/0	0/0
rs17513613	chr19	29795915	0/0	0/1	0/1	0/1	0/1	0/1	0/0	0/0	0/0	0/1	0/0	0/1	1/1
rs8102137	chr19	29805946	0/0	0/1	0/1	0/1	0/1	0/1	0/0	0/0	0/0	0/1	0/0	0/1	1/1
rs29941	chr19	33818627	0/1	0/1	0/1	1/1	0/1	1/1	1/1	1/1	0/1	1/1	0/1	0/1	0/1
rs11084753	chr19	33831232	0/1	0/1	0/1	1/1	0/1	1/1	1/1	1/1	1/1	1/1	0/1	0/1	0/1
rs562638	chr19	39359149	0/0	0/0	0/0	0/0	0/0	0/1	0/0	0/0	0/0	0/0	0/0	0/0	0/1
rs2075650	chr19	44892362	0/1	0/0	0/0	0/1	0/0	0/0	0/0	0/0	0/0	0/0	0/0	0/0	0/0
rs405509	chr19	44905579	0/0	1/1	0/1	0/1	1/1	1/1	1/1	0/0	0/1	0/1	1/1	0/0	1/1
rs429358	chr19	44908684	0/0	0/0	0/0	0/1	0/0	0/0	0/0	0/0	0/0	0/0	0/1	0/0	0/0
rs7412	chr19	44908822	0/0	0/0	0/0	0/0	0/1	0/0	0/0	0/0	0/0	0/0	0/1	0/0	0/1
rs8111989	chr19	45305950	0/0	0/1	0/1	0/0	0/1	0/1	1/1	0/0	0/0	0/0	0/1	0/0	0/0
rs1803285	chr19	45317959	0/0	0/0	0/0	0/0	0/0	0/0	0/0	0/0	0/0	0/0	0/0	0/0	0/0
rs11671664	chr19	45669020	0/0	0/1	0/1	0/0	0/0	0/0	0/0	0/0	0/1	0/0	0/0	0/0	0/0
rs139215588	chr19	45674762	0/0	0/0	0/0	0/0	0/0	0/0	0/0	0/0	0/0	0/0	0/0	0/0	0/0
rs11672660	chr19	45676926	0/1	1/1	0/1	0/1	0/0	0/0	0/0	0/0	0/1	0/0	0/0	0/1	0/0
rs143430880	chr19	45677718	0/0	0/0	0/0	0/0	0/0	0/0	0/0	0/0	0/0	0/0	0/0	0/0	0/0
rs10423928	chr19	45679046	0/1	1/1	0/1	0/1	0/0	0/0	0/0	0/0	0/1	0/0	0/0	0/1	0/0
rs7245708	chr19	45692498	0/0	0/0	0/0	0/0	0/0	0/0	0/0	0/0	0/0	0/1	0/0	0/1	0/0
rs2287019	chr19	45698914	0/1	1/1	0/0	0/1	0/0	0/0	0/0	0/0	0/1	0/0	0/0	0/1	0/0
rs3810291	chr19	47065746	1/1	1/1	0/0	1/1	1/1	0/0	1/1	1/1	1/1	0/1	1/1	0/0	1/1
rs602662	chr19	48703728	0/1	0/1	1/1	0/0	0/1	0/1	1/1	1/1	0/0	0/0	0/1	0/1	0/1
rs7247312	chr19	48833980	0/0	0/0	1/1	0/0	0/0	0/0	0/0	0/0	0/1	0/0	0/0	1/1	0/0
rs74174284	chr19	49441627	0/1	0/0	0/0	1/1	0/0	0/1	1/1	1/1	0/1	1/1	0/1	0/1	0/1
rs16986856	chr19	55986594	0/1	0/1	0/0	0/1	1/1	0/0	0/1	0/1	1/1	0/0	0/0	0/1	0/0
rs28649880	chr19	57455765	0/1	0/0	0/0	0/1	0/0	1/1	0/0	0/1	0/1	1/1	0/0	0/0	0/0
rs2867125	chr2	622827	0/1	1/1	1/1	1/1	1/1	1/1	1/1	0/0	1/1	1/1	1/1	0/1	1/1
rs12463617	chr2	629244	0/1	1/1	1/1	1/1	1/1	1/1	1/1	0/0	1/1	1/1	1/1	0/1	1/1
rs6548238	chr2	634905	0/1	1/1	1/1	1/1	1/1	1/1	1/1	0/0	1/1	1/1	1/1	0/1	1/1
rs4854344	chr2	638144	0/1	1/1	1/1	1/1	1/1	1/1	1/1	0/0	1/1	1/1	1/1	0/1	1/1
rs7561317	chr2	644953	0/1	1/1	1/1	1/1	1/1	1/1	1/1	0/0	1/1	1/1	1/1	0/1	1/1
rs2193071	chr2	7896129	0/0	0/0	0/0	0/0	0/0	0/0	0/0	0/0	0/0	0/0	0/0	0/0	0/0
rs12185578	chr2	17427972	0/1	1/1	0/1	0/1	1/1	0/0	0/0	0/1	0/1	0/0	1/1	0/1	0/1
rs512535	chr2	21044910	0/1	0/0	0/0	0/1	0/1	1/1	0/1	1/1	0/1	0/0	0/1	0/1	0/1
rs10189050	chr2	22901686	1/1	0/1	1/1	1/1	0/1	1/1	1/1	1/1	0/1	1/1	1/1	0/1	0/1
rs2044148	chr2	24514964	0/0	0/0	0/1	0/1	0/0	0/0	0/0	0/0	0/0	0/1	0/0	0/0	0/0
rs6545814	chr2	24908447	0/1	0/1	0/1	0/0	0/1	0/1	0/0	0/0	1/1	0/0	0/1	1/1	0/1
rs6752378	chr2	24927247	0/1	0/1	0/1	0/0	0/1	0/1	0/0	0/0	1/1	0/0	0/1	1/1	0/1
rs10182181	chr2	24927427	0/1	0/1	0/1	0/0	0/1	0/1	0/0	0/0	1/1	0/0	0/1	1/1	0/1
rs713586	chr2	24935139	0/1	0/1	0/1	0/0	0/1	0/1	0/0	0/0	1/1	0/0	0/1	1/1	0/1
rs1561288	chr2	25146133	0/0	0/1	0/0	0/1	0/0	0/0	0/0	0/1	0/0	0/0	0/1	0/0	0/1
rs1866146	chr2	25157704	1/1	1/1	1/1	0/1	0/1	0/1	1/1	0/0	1/1	0/1	0/1	1/1	1/1
rs1042571	chr2	25161018	0/0	0/1	0/0	0/1	0/0	0/1	0/1	0/0	0/1	0/0	0/1	0/1	0/1
rs750136455	chr2	25161569	0/0	0/0	0/0	0/0	0/0	0/0	0/0	0/0	0/0	0/0	0/0	0/0	0/0
rs3821023	chr2	38666518	0/0	0/0	0/0	1/1	0/1	0/0	0/0	0/0	0/1	1/1	0/1	0/0	0/0
rs1867785	chr2	46307199	1/1	0/1	0/0	0/1	0/1	1/1	0/1	0/0	0/1	0/1	1/1	1/1	1/1
rs11689011	chr2	46314037	1/1	0/1	0/0	0/1	0/1	1/1	0/1	0/0	0/1	0/1	1/1	1/1	1/1
rs2287348	chr2	53812676	0/0	0/0	0/1	0/1	0/1	0/0	0/0	0/0	0/1	0/0	0/0	0/1	0/1
rs1518395	chr2	57980939	0/1	1/1	0/1	1/1	0/0	0/0	1/1	0/1	1/1	0/0	0/1	0/0	1/1
rs1051061	chr2	58089679	0/1	0/1	0/1	1/1	0/0	0/0	0/1	0/1	0/1	0/1	0/1	0/0	1/1
rs12617233	chr2	58812863	0/1	0/1	0/0	1/1	0/1	0/1	1/1	0/1	1/1	1/1	0/1	0/1	0/0
rs887912	chr2	59075742	0/1	0/1	1/1	0/1	0/1	0/1	0/1	0/1	0/1	0/1	1/1	1/1	0/1
rs7583236	chr2	69955673	0/0	0/0	0/0	0/0	0/1	0/0	0/0	0/0	0/0	0/1	0/0	0/0	0/0
rs1659258	chr2	88360069	0/0	0/1	0/0	0/0	0/0	0/0	0/0	0/0	0/1	0/0	0/0	0/0	0/0
rs2293225	chr2	102419429	0/0	0/0	0/1	0/1	0/0	0/0	0/0	0/0	0/1	0/0	0/0	0/0	0/1
rs2272127	chr2	102423413	0/0	0/0	0/0	0/1	1/1	0/0	0/0	0/0	0/0	0/0	0/1	0/0	0/1
rs7559479	chr2	102452327	1/1	1/1	1/1	1/1	1/1	0/1	0/1	0/1	0/1	0/1	1/1	1/1	1/1
rs13027870	chr2	110870945	0/1	0/0	0/0	0/0	0/0	0/1	0/0	0/0	0/0	0/0	0/0	0/0	0/1
rs11677416	chr2	112771663	0/1	0/0	0/0	0/1	0/0	0/1	0/0	1/1	0/1	0/0	0/1	0/0	0/0
rs10560589	chr2	112838708	0/0	0/0	0/0	0/0	0/0	0/0	0/0	0/0	0/0	0/0	0/0	0/0	0/0
rs7566605	chr2	118078449	0/1	0/1	0/1	0/1	0/1	1/1	1/1	1/1	1/1	1/1	1/1	1/1	1/1
rs12467609	chr2	134385716	0/0	0/0	0/1	0/1	0/1	1/1	0/0	1/1	0/1	0/1	1/1	0/0	0/0
rs4988235	chr2	135851076	0/0	0/0	0/0	0/0	0/0	0/1	0/0	0/1	0/1	0/1	0/0	0/0	0/0
rs182549	chr2	135859184	0/0	0/1	0/0	0/1	0/0	0/1	0/0	0/1	0/1	0/1	0/1	0/0	0/0
rs1582861	chr2	136733551	0/1	0/0	0/0	0/0	0/1	1/1	0/1	0/0	0/0	0/1	0/0	0/0	0/0
rs10445672	chr2	145347686	0/1	0/1	0/1	0/0	0/0	1/1	0/1	0/0	0/0	0/0	0/0	0/1	0/0
rs12693407	chr2	152578774	1/1	1/1	0/1	0/0	0/0	0/1	0/1	0/1	1/1	0/1	0/1	0/1	0/1
rs10196189	chr2	153969978	0/0	0/1	0/1	0/0	0/1	0/0	0/0	0/0	0/0	0/0	0/1	1/1	0/1
rs187522732	chr2	156008304	0/0	0/0	0/0	0/0	0/0	0/0	0/0	0/0	0/0	0/0	0/0	0/0	0/0
rs10208407	chr2	160900618	0/0	0/0	0/0	0/0	0/0	0/0	0/0	0/0	0/0	0/0	0/0	0/0	0/0
rs1722636	chr2	160925262	0/0	0/1	0/0	1/1	0/0	0/0	0/1	0/1	0/0	0/0	0/1	0/0	0/1
rs6746030	chr2	166242648	0/1	1/1	1/1	1/1	0/1	1/1	1/1	1/1	1/1	1/1	0/1	1/1	1/1
rs6754031	chr2	166298928	0/0	0/1	0/0	1/1	0/1	0/0	0/0	1/1	0/1	1/1	0/0	0/0	0/0
rs34291900	chr2	169273037	0/0	0/0	0/0	0/0	0/0	0/0	0/0	0/1	0/0	0/0	0/0	0/0	0/0
rs830998	chr2	169276576	1/1	1/1	1/1	0/1	1/1	0/0	1/1	1/1	1/1	1/1	1/1	1/1	0/1
rs1020410	chr2	175919410	0/0	0/1	0/1	0/1	1/1	0/1	0/1	1/1	0/0	0/0	0/1	0/0	0/0
rs5743030	chr2	189813819	0/0	0/0	0/0	0/0	0/0	0/0	0/0	0/0	0/0	0/0	0/0	0/0	0/0
rs1805086	chr2	190060351	0/1	0/0	0/0	0/0	0/0	0/0	0/1	0/0	0/0	0/0	0/0	0/0	0/0
rs796364	chr2	199851396	0/1	1/1	0/1	1/1	0/1	1/1	0/1	1/1	1/1	1/1	1/1	1/1	1/1
rs17406900	chr2	202919479	1/1	0/1	0/1	0/1	0/1	0/1	1/1	0/0	0/1	0/0	1/1	1/1	0/1
rs11691351	chr2	203009189	1/1	0/1	0/1	0/1	0/1	0/1	1/1	0/0	0/1	0/1	1/1	1/1	0/1
rs7573079	chr2	203062828	1/1	0/1	0/1	0/1	0/1	0/1	1/1	0/0	0/1	0/1	1/1	1/1	0/1
rs7593917	chr2	203066289	1/1	0/1	0/1	0/1	0/1	0/1	1/1	0/0	0/1	0/1	1/1	1/1	0/1
rs231784	chr2	203832259	0/0	1/1	0/0	0/0	0/0	0/0	0/0	0/0	0/0	0/1	0/0	0/0	0/0
rs1453160	chr2	207012741	0/0	0/1	0/0	0/1	0/0	0/0	0/0	0/0	0/1	0/0	0/0	0/0	0/0
rs2360969	chr2	207508272	0/0	0/1	0/1	1/1	0/1	0/1	0/0	0/0	0/0	0/1	0/0	0/1	0/1
rs2253206	chr2	207527254	0/1	0/1	0/1	0/0	0/1	0/1	1/1	1/1	0/1	0/1	0/1	0/1	0/1
rs17496827	chr2	222488727	0/1	0/1	0/1	0/1	1/1	1/1	0/1	0/1	0/0	0/1	0/1	0/1	1/1
rs2943641	chr2	226229029	1/1	0/1	0/1	0/1	1/1	0/1	0/1	1/1	0/1	1/1	0/1	1/1	0/1
rs6727879	chr2	230161876	0/0	0/0	0/0	0/0	0/0	0/0	0/0	0/0	0/0	0/0	0/0	0/0	0/0
rs3749073	chr2	230910379	0/0	0/0	0/0	0/0	0/0	0/0	0/0	0/0	0/0	0/0	0/1	0/1	0/0
rs61754648	chr2	239090026	0/0	0/0	0/0	0/0	0/0	0/0	0/0	0/0	0/0	0/0	0/0	0/0	0/0
rs3791556	chr2	239191276	0/0	0/0	0/0	0/0	1/1	0/1	0/1	0/1	0/0	0/0	0/0	0/0	0/0
rs4241231	chr2	239427401	0/1	0/1	0/1	0/1	0/1	0/1	0/0	0/0	1/1	1/1	0/1	1/1	0/0
rs186736781	chr2	239551396	0/0	0/0	0/0	0/0	0/0	0/0	0/0	0/0	0/0	0/0	0/0	0/0	0/0
rs71428439	chr2	240456083	0/0	0/1	0/0	0/0	0/0	0/0	0/0	0/0	0/0	0/1	0/0	0/0	0/0
rs2292832	chr2	240456086	0/1	1/1	0/1	1/1	0/1	0/1	0/1	1/1	0/1	0/1	1/1	1/1	0/0
rs6133010	chr20	3069655	0/0	0/0	0/0	0/0	0/0	0/0	0/0	0/0	0/0	0/0	0/1	0/0	0/1
rs15705	chr20	6779333	0/0	0/1	0/0	0/1	0/1	0/0	1/1	1/1	0/1	1/1	0/1	0/1	0/1
rs363039	chr20	10239848	0/1	0/1	1/1	0/0	0/0	0/1	0/0	0/0	0/1	0/1	1/1	0/1	0/1
rs363043	chr20	10245498	0/0	0/0	0/0	0/0	0/1	0/0	1/1	0/1	0/1	0/0	0/0	0/1	0/1
rs363050	chr20	10253609	0/1	0/1	0/0	1/1	1/1	0/1	1/1	1/1	1/1	0/1	0/0	0/1	0/1
rs17725255	chr20	18098487	0/0	0/0	0/1	0/0	1/1	0/0	0/0	0/0	0/1	0/0	0/0	0/0	0/0
rs3746444	chr20	34990448	0/0	0/0	0/0	0/1	1/1	0/0	0/0	0/0	0/0	0/1	0/1	0/1	0/0
rs143383	chr20	35438203	1/1	0/1	1/1	1/1	1/1	0/1	1/1	1/1	0/0	0/0	0/1	0/1	0/1
rs8115222	chr20	36277318	0/0	0/0	0/0	0/0	0/0	0/0	0/0	0/0	0/0	0/0	0/0	0/0	0/0
rs6013355	chr20	52021121	0/0	0/0	0/0	0/1	0/0	0/0	0/1	0/0	0/0	0/1	0/0	0/0	0/0
rs13041126	chr20	52476457	0/1	0/1	0/1	0/0	0/1	0/0	0/0	0/0	0/1	0/1	0/0	0/1	0/0
rs2585417	chr20	54227260	0/1	0/1	0/0	0/1	0/0	0/0	0/1	0/0	0/0	1/1	0/0	0/1	0/1
rs6025590	chr20	57495449	1/1	0/1	0/0	1/1	0/1	0/1	1/1	1/1	1/1	0/1	0/1	1/1	0/1
rs2057291	chr20	58896988	0/1	1/1	0/1	0/1	0/1	0/1	0/1	1/1	1/1	0/1	1/1	1/1	0/1
rs6090314	chr20	63226200	0/1	0/0	1/1	0/1	0/1	0/0	1/1	0/0	0/0	0/0	0/0	0/0	0/0
rs933117	chr21	29728478	0/0	0/0	0/0	0/0	0/0	0/0	0/0	0/0	0/0	0/0	0/0	0/0	0/0
rs2070424	chr21	31667007	0/0	0/0	0/0	0/1	0/0	0/1	0/0	0/0	0/1	0/0	0/0	0/0	0/0
rs7354779	chr21	44250887	0/0	0/0	0/0	0/0	0/0	0/0	0/0	0/0	0/0	0/0	0/0	0/0	0/0
rs35796750	chr21	46002498	1/1	0/1	1/1	0/1	1/1	0/1	0/1	0/0	0/1	0/1	0/1	0/0	1/1
rs4680	chr22	19963748	1/1	0/1	1/1	1/1	0/1	0/0	0/0	1/1	0/1	0/0	1/1	0/1	0/0
rs696880	chr22	20247677	0/0	0/1	1/1	0/1	0/1	1/1	0/0	1/1	0/0	0/1	0/1	1/1	0/0
rs5751876	chr22	24441333	1/1	0/0	1/1	0/1	0/1	0/1	0/0	0/1	0/1	1/1	0/1	0/1	0/0
rs4820268	chr22	37073551	1/1	0/0	0/0	0/1	0/1	0/1	0/0	0/1	0/0	0/1	1/1	0/1	0/0
rs228948	chr22	37131886	0/0	0/0	0/0	0/0	0/0	0/0	0/0	0/0	0/0	0/0	0/0	0/0	0/0
rs133068	chr22	40678403	0/1	1/1	0/0	1/1	0/1	0/1	0/1	0/1	0/1	1/1	1/1	0/1	1/1
rs134885	chr22	42277805	0/0	1/1	1/1	1/1	0/0	0/1	1/1	1/1	0/0	1/1	0/0	1/1	0/0
rs1800206	chr22	46218377	0/0	0/0	0/0	0/0	0/0	0/0	0/0	0/0	0/0	0/0	0/0	0/0	0/0
rs4253778	chr22	46234737	0/1	0/0	0/0	0/0	0/0	0/1	0/0	0/0	0/0	0/0	0/0	0/0	0/0
rs2131458	chr3	4498542	0/1	0/0	0/0	0/1	0/0	0/0	0/0	1/1	0/0	0/1	0/0	0/0	0/1
rs1038639	chr3	4520983	1/1	0/1	1/1	0/1	0/1	1/1	1/1	0/1	1/1	0/1	1/1	1/1	1/1
rs4684677	chr3	10286769	0/0	0/0	0/0	0/0	0/0	0/0	0/0	0/0	0/1	0/0	0/0	0/0	0/0
rs2075356	chr3	10287125	0/1	0/1	0/1	0/1	0/0	0/0	0/1	0/0	0/0	0/0	0/0	0/1	0/0
rs696217	chr3	10289773	0/1	0/1	0/1	0/1	0/0	0/0	0/0	0/0	0/0	0/0	0/0	0/1	0/0
rs34911341	chr3	10289835	0/0	0/0	0/0	0/0	0/0	0/0	0/0	0/0	0/0	0/0	0/0	0/0	0/0
rs26311	chr3	10291242	0/1	0/1	0/1	0/1	0/0	0/0	0/1	0/0	0/0	0/1	0/0	0/1	0/0
rs6782029	chr3	11634315	0/0	0/1	0/0	0/1	0/0	0/1	0/0	0/0	0/0	0/0	0/0	0/0	0/0
rs7649970	chr3	12350773	0/1	0/0	0/0	0/1	0/0	0/0	0/0	0/1	0/0	0/0	0/1	0/0	0/0
rs1801282	chr3	12351626	0/1	0/0	0/0	0/1	0/0	0/0	0/0	0/1	0/0	0/0	0/1	0/0	0/0
rs7374732	chr3	23161963	1/1	0/0	1/1	1/1	0/1	0/1	1/1	0/0	0/0	0/1	0/1	0/1	0/1
rs7612463	chr3	23294959	0/0	0/0	0/0	0/1	0/0	0/0	0/1	0/0	0/0	0/0	0/0	0/0	0/0
rs2953	chr3	41239897	0/1	0/1	0/1	0/1	0/1	0/0	0/0	0/0	0/0	0/0	0/0	0/1	0/1
rs9821797	chr3	48680820	0/0	0/1	0/0	0/1	0/0	0/0	0/0	0/0	0/0	0/0	0/0	0/1	0/0
rs1029871	chr3	52763618	0/0	0/1	1/1	0/0	1/1	1/1	1/1	0/1	0/0	0/0	0/1	0/1	0/1
rs678	chr3	52786965	0/0	0/1	1/1	0/0	0/1	1/1	1/1	0/1	0/0	0/0	0/1	0/1	0/1
rs9874207	chr3	70970599	0/0	1/1	1/1	0/1	1/1	0/0	0/1	0/1	1/1	1/1	0/1	1/1	0/1
rs17008402	chr3	71251416	0/0	0/0	0/1	0/1	0/1	0/0	0/0	1/1	1/1	1/1	0/1	0/1	0/1
rs13078807	chr3	85835000	0/0	0/0	0/0	0/0	0/0	0/0	0/1	0/0	0/0	0/1	0/0	0/1	0/1
rs2324999	chr3	86109735	0/1	0/1	0/0	0/0	0/0	0/0	0/1	0/0	0/0	1/1	1/1	0/1	0/0
rs13100344	chr3	94886263	0/0	1/1	1/1	0/0	0/0	0/1	1/1	0/0	0/0	0/0	0/1	0/0	1/1
rs3811647	chr3	133765185	0/0	1/1	0/1	1/1	0/0	0/0	0/0	0/0	1/1	1/1	0/1	0/0	0/0
rs2194938	chr3	140012158	0/1	0/1	1/1	1/1	1/1	0/0	0/0	1/1	0/1	1/1	1/1	0/1	1/1
rs12629805	chr3	146914377	0/1	0/1	0/0	0/0	0/0	0/0	0/1	0/0	0/0	0/1	0/0	0/0	0/0
rs11715829	chr3	147239379	0/0	0/0	0/0	0/0	0/1	0/0	0/0	0/0	0/0	0/0	0/1	0/1	0/0
rs7617219	chr3	149259527	0/0	0/1	0/1	0/1	1/1	1/1	0/1	0/1	1/1	0/1	0/1	0/1	0/1
rs509035	chr3	172445659	0/0	0/1	0/0	0/0	0/1	1/1	0/1	0/1	1/1	1/1	0/0	0/0	0/0
rs490683	chr3	172457284	0/0	0/0	0/0	0/0	0/1	1/1	0/1	0/1	1/1	1/1	0/0	0/0	0/1
rs9839776	chr3	181593779	0/0	0/0	0/1	0/0	0/1	0/0	0/1	1/1	0/1	0/0	0/1	0/0	0/1
rs7647305	chr3	186116501	1/1	0/1	1/1	0/1	1/1	1/1	0/1	1/1	1/1	1/1	0/0	1/1	1/1
rs9816226	chr3	186116710	1/1	0/1	1/1	0/1	1/1	1/1	0/1	1/1	1/1	1/1	0/0	1/1	1/1
rs266728	chr3	186805512	0/1	0/1	1/1	0/0	0/0	0/0	0/0	0/1	0/1	0/0	1/1	0/0	0/0
rs4632532	chr3	186833893	0/0	0/0	0/1	0/0	0/0	0/1	0/0	0/1	0/1	0/0	0/1	0/0	0/0
rs1656930	chr3	186835068	1/1	1/1	0/1	1/1	0/1	1/1	1/1	1/1	1/1	0/1	1/1	1/1	0/1
rs860291	chr3	186840168	1/1	1/1	0/1	1/1	0/1	1/1	1/1	1/1	1/1	0/1	1/1	1/1	0/1
rs17300539	chr3	186841671	0/0	0/0	0/0	0/0	0/1	0/1	0/0	0/0	0/0	0/0	0/0	0/1	0/0
rs266729	chr3	186841685	0/0	0/0	0/1	0/0	0/0	0/1	0/0	0/1	0/1	0/0	0/1	0/0	0/0
rs182052	chr3	186842993	0/0	0/0	0/1	0/0	0/0	0/1	0/0	0/1	1/1	0/0	0/1	0/0	0/0
rs1501299	chr3	186853334	0/0	0/1	0/0	0/0	0/1	0/1	0/1	0/0	0/1	0/0	0/0	0/1	0/0
rs3774261	chr3	186853770	1/1	0/0	1/1	0/1	0/1	0/1	0/1	1/1	0/1	0/1	1/1	0/0	0/1
rs62296075	chr4	1045427	0/0	0/1	0/0	0/0	0/0	0/0	0/0	0/0	0/0	0/1	0/0	0/0	0/0
rs13125782	chr4	7426539	1/1	0/1	0/0	0/1	0/1	1/1	1/1	1/1	1/1	0/1	0/1	0/1	1/1
rs8192678	chr4	23814039	0/0	0/1	0/1	0/0	0/0	0/0	0/1	0/0	0/0	0/1	0/1	0/1	0/0
rs4697425	chr4	23861590	0/0	0/0	0/1	0/0	0/1	0/0	0/1	0/0	0/0	0/1	0/1	0/0	0/1
rs2854030	chr4	26480399	0/1	0/1	1/1	0/0	0/0	0/0	0/0	0/0	0/1	0/0	0/1	0/0	0/0
rs6834483	chr4	35981489	1/1	0/1	1/1	1/1	1/1	1/1	1/1	1/1	1/1	1/1	1/1	1/1	1/1
rs35859249	chr4	37902468	0/0	0/0	0/0	0/0	0/0	0/0	0/0	0/1	0/0	0/1	0/0	0/0	0/0
rs11940694	chr4	39413373	0/0	0/1	0/1	0/1	1/1	0/0	0/0	0/0	0/0	0/1	0/1	0/1	0/1
rs13130484	chr4	45173674	1/1	1/1	0/1	0/0	1/1	0/0	0/0	0/0	0/1	0/1	0/1	0/1	1/1
rs10938397	chr4	45180510	1/1	1/1	1/1	0/0	1/1	0/0	0/0	0/0	0/1	0/1	0/1	0/1	1/1
rs348495	chr4	45182425	0/0	0/0	0/0	1/1	0/0	1/1	1/1	1/1	0/0	0/1	0/1	0/1	0/0
rs2055940	chr4	46995896	0/1	0/0	0/0	0/1	0/0	0/1	0/0	0/1	0/0	0/0	0/0	0/0	0/1
rs12504244	chr4	54619021	0/1	0/1	0/1	0/1	0/0	0/0	0/0	0/1	0/0	0/0	0/1	0/0	0/0
rs1870377	chr4	55106807	0/0	0/0	0/1	0/0	0/0	1/1	0/1	0/0	0/0	1/1	0/1	0/1	0/1
rs3749474	chr4	55434518	0/1	0/0	1/1	0/1	0/0	0/1	0/1	0/1	0/1	0/1	0/1	0/0	0/1
rs2282679	chr4	71742666	0/0	0/0	1/1	0/1	0/0	0/1	1/1	0/0	0/0	0/1	0/0	0/0	0/0
rs4588	chr4	71752606	0/0	0/0	1/1	0/1	0/0	0/1	1/1	0/0	0/0	0/1	0/0	0/0	0/0
rs7041	chr4	71752617	0/1	1/1	0/0	0/1	1/1	0/1	0/0	0/1	0/1	0/0	1/1	0/1	0/1
rs28357094	chr4	87975645	0/1	0/0	0/0	0/0	0/0	0/0	0/1	0/1	0/0	0/0	0/0	0/1	0/1
rs1440581	chr4	88305270	0/1	1/1	0/1	0/1	0/1	0/1	1/1	0/1	0/1	0/0	1/1	0/1	0/1
rs3804358	chr4	101100944	0/0	0/0	0/0	0/0	0/0	0/0	0/0	0/0	0/0	0/0	0/0	0/0	0/0
rs17030795	chr4	101126919	0/1	0/0	0/1	0/0	0/0	0/1	0/0	0/0	1/1	0/0	0/0	0/1	0/0
rs13107325	chr4	102267552	0/0	0/0	0/0	0/0	0/0	0/0	0/0	0/0	0/0	0/0	0/1	0/0	0/0
rs1799883	chr4	119320747	1/1	1/1	0/0	1/1	0/1	1/1	0/1	1/1	0/1	0/1	0/1	1/1	1/1
rs3104104	chr4	140545324	1/1	1/1	1/1	1/1	1/1	1/1	0/0	1/1	1/1	1/1	0/1	1/1	0/1
rs10011540	chr4	140568842	0/0	0/1	0/0	0/0	0/0	0/0	0/0	0/0	0/0	0/0	0/0	0/1	0/0
rs3811791	chr4	140570619	0/1	0/0	0/0	0/0	0/0	0/0	0/0	0/0	0/0	0/0	0/0	0/0	0/0
rs1800592	chr4	140572807	0/1	0/1	0/0	0/1	0/0	0/1	0/0	0/0	1/1	0/1	0/1	0/1	1/1
rs1589241	chr4	141643936	0/1	0/0	0/0	0/1	0/1	0/1	1/1	1/1	1/1	0/0	1/1	0/1	0/1
rs1057972	chr4	141733279	0/1	0/0	0/0	0/1	0/1	0/0	1/1	0/1	1/1	0/0	0/1	0/1	0/1
rs11725509	chr4	148390576	0/0	0/1	0/0	0/1	0/0	0/0	0/0	0/0	0/0	0/0	0/0	0/0	1/1
rs1439283	chr4	181563616	0/0	0/1	1/1	0/0	0/1	1/1	0/0	0/1	0/1	0/0	0/1	1/1	0/0
rs116143768	chr4	184772303	0/0	0/0	0/0	0/0	0/0	0/0	0/0	0/0	0/0	0/0	0/0	0/0	0/0
rs6552828	chr4	184804262	0/1	0/1	0/1	0/1	0/1	0/1	0/0	1/1	0/1	0/1	0/1	0/1	0/1
rs9997745	chr4	184816689	0/0	0/0	0/0	0/0	0/0	0/1	0/1	0/0	0/0	0/1	0/0	0/1	0/1
rs1801394	chr5	7870860	0/1	1/1	1/1	0/1	0/0	0/0	0/1	0/0	0/1	0/0	0/0	0/0	0/0
rs370838138	chr5	25081736	0/0	0/0	0/0	0/0	0/0	0/0	0/0	0/0	0/0	0/0	0/0	0/0	0/0
rs4479806	chr5	26723674	0/0	0/0	0/0	0/1	1/1	0/0	0/0	0/0	0/1	0/1	0/0	0/0	0/0
rs10719	chr5	31401340	1/1	1/1	0/1	1/1	1/1	0/1	1/1	1/1	0/1	0/1	1/1	0/1	0/0
rs2910931	chr5	32394809	0/0	0/0	0/0	1/1	0/1	0/1	0/1	0/0	0/1	0/1	0/0	0/0	1/1
rs293748	chr5	36900741	0/0	0/0	0/0	0/1	0/0	0/0	0/0	0/1	0/0	0/1	0/1	0/0	0/0
rs117565216	chr5	43726698	0/0	0/0	0/0	0/0	0/0	0/0	0/0	0/0	0/0	0/0	0/0	0/0	0/0
rs4703647	chr5	71715685	0/0	0/0	0/0	0/0	0/0	0/0	0/0	0/0	0/0	0/0	0/0	0/0	0/0
rs17664695	chr5	73735117	0/0	0/0	0/0	0/0	0/0	0/0	0/0	0/0	0/0	0/0	0/0	0/0	0/0
rs6453133	chr5	75396951	0/1	0/0	0/0	0/1	0/1	1/1	0/1	0/1	0/0	0/1	0/0	0/1	0/0
rs2112347	chr5	75719417	0/1	0/0	0/0	0/0	0/0	1/1	0/1	1/1	0/1	0/1	0/0	1/1	0/0
rs410644	chr5	81791715	1/1	0/1	0/0	0/1	0/1	0/1	1/1	1/1	0/1	1/1	1/1	0/0	0/1
rs2247870	chr5	90855772	0/0	0/1	0/1	1/1	0/0	1/1	1/1	0/0	0/0	1/1	0/0	0/0	0/1
rs13153333	chr5	91685570	0/0	0/0	0/0	0/0	0/0	0/0	0/0	0/0	0/0	0/0	0/0	0/0	0/0
rs13173682	chr5	93151837	0/1	0/1	0/1	0/1	0/1	0/1	0/0	1/1	1/1	1/1	1/1	0/0	0/0
rs469339	chr5	94812833	1/1	1/1	1/1	1/1	1/1	1/1	1/1	1/1	1/1	1/1	1/1	1/1	1/1
rs6235	chr5	96393194	0/1	0/1	0/0	0/1	0/1	1/1	0/1	0/0	0/1	0/0	1/1	0/0	0/0
rs6232	chr5	96416081	0/0	0/0	0/0	0/0	0/0	0/1	0/0	0/0	0/0	0/0	0/0	0/0	0/0
rs261967	chr5	96514546	0/0	0/1	1/1	0/0	0/1	0/0	1/1	1/1	0/1	1/1	1/1	0/0	0/1
rs200312312	chr5	104666645	0/0	0/0	0/1	0/1	0/1	0/0	0/1	0/1	0/0	1/1	0/1	0/0	0/0
rs13166814	chr5	118002058	0/0	0/0	0/0	0/0	0/0	0/1	0/0	0/0	0/0	0/0	0/0	0/0	0/0
rs9765600	chr5	120583352	0/0	0/1	0/1	1/1	0/1	0/1	0/0	1/1	0/0	0/1	1/1	0/0	1/1
rs17501712	chr5	124235467	0/0	0/0	0/0	0/0	0/0	0/0	0/0	0/0	0/0	0/0	0/0	0/0	0/0
rs17468244	chr5	125513213	0/0	0/0	0/0	0/0	0/0	0/0	0/0	0/0	0/0	0/0	0/0	0/0	0/0
rs10060123	chr5	126348218	0/1	0/0	0/0	0/1	0/0	0/0	0/1	0/0	0/1	0/1	0/0	0/1	0/0
rs1295685	chr5	132660753	1/1	1/1	0/1	0/1	1/1	1/1	0/0	1/1	1/1	1/1	1/1	1/1	1/1
rs848	chr5	132660808	1/1	1/1	0/1	0/1	1/1	1/1	0/0	1/1	0/1	1/1	1/1	1/1	1/1
rs847	chr5	132660977	1/1	1/1	0/1	0/1	1/1	1/1	0/0	1/1	1/1	1/1	1/1	1/1	1/1
rs1051854	chr5	136978324	1/1	1/1	1/1	1/1	1/1	0/1	1/1	0/1	1/1	1/1	0/1	1/1	1/1
rs41423247	chr5	143399010	0/0	0/0	0/0	0/0	0/1	0/1	0/0	0/1	0/1	0/0	0/0	0/1	0/1
rs56149945	chr5	143399752	0/0	0/0	0/0	0/0	0/0	0/0	0/0	0/0	0/0	0/0	0/0	0/0	0/0
rs6190	chr5	143400772	0/1	0/0	0/0	0/0	0/0	0/0	0/0	0/0	0/0	0/0	0/1	0/0	0/0
rs6189	chr5	143400774	0/1	0/0	0/0	0/0	0/0	0/0	0/0	0/0	0/0	0/0	0/1	0/0	0/0
rs6889822	chr5	148467144	1/1	0/1	0/0	1/1	0/1	0/0	0/0	0/0	0/1	0/0	0/0	0/1	0/0
rs34623097	chr5	148825046	0/0	0/0	0/0	0/0	0/0	0/0	0/0	0/0	0/0	0/0	0/0	0/0	0/0
rs1042711	chr5	148826785	0/1	0/1	1/1	1/1	0/1	0/1	0/0	1/1	1/1	0/1	1/1	1/1	1/1
rs1801704	chr5	148826812	0/1	0/1	1/1	1/1	0/1	0/1	0/0	1/1	1/1	0/1	1/1	1/1	1/1
rs1042713	chr5	148826877	0/1	0/1	1/1	0/0	0/1	0/0	0/0	0/1	1/1	0/1	0/1	0/0	1/1
rs1042714	chr5	148826910	0/1	0/1	1/1	1/1	0/1	0/1	0/0	1/1	1/1	0/1	1/1	1/1	1/1
rs6580586	chr5	148863160	0/1	0/0	1/1	0/0	0/0	0/0	0/0	0/1	0/1	0/1	0/0	0/0	0/1
rs10060424	chr5	149734661	0/1	0/0	0/0	0/1	1/1	1/1	1/1	0/1	0/1	0/1	0/1	0/0	1/1
rs7732671	chr5	149832680	0/0	0/0	1/1	0/1	0/0	0/0	0/0	0/0	0/1	0/1	0/0	0/1	0/0
rs11959820	chr5	149832947	0/1	0/0	0/0	0/0	0/0	0/0	0/0	0/0	0/0	0/0	0/0	0/0	0/0
rs1650505	chr5	158602726	0/1	0/0	0/1	0/0	0/0	0/0	0/1	0/0	0/0	0/1	0/0	0/0	0/0
rs929626	chr5	158883623	0/1	0/1	0/0	0/1	1/1	0/1	0/0	0/1	1/1	1/1	0/0	1/1	0/0
rs2910164	chr5	160485411	0/1	0/1	1/1	1/1	1/1	0/1	1/1	1/1	0/1	1/1	0/0	0/1	0/1
rs11134527	chr5	168768351	0/1	0/1	0/1	0/0	0/0	0/1	0/1	0/1	0/1	0/1	0/0	0/0	0/1
rs1363281	chr5	170820294	0/1	0/1	0/0	0/0	1/1	1/1	0/0	0/1	0/1	0/1	0/1	0/0	0/1
rs752596	chr5	170827611	0/1	0/1	0/0	0/0	1/1	1/1	0/0	0/1	0/1	0/1	0/1	0/0	0/1
rs11952171	chr5	174268775	0/0	0/0	0/0	0/0	0/0	0/0	0/1	0/0	0/0	0/0	0/0	0/0	0/0
rs2842895	chr6	7106083	0/1	1/1	0/0	0/0	0/1	0/1	1/1	1/1	0/1	1/1	0/1	0/1	0/0
rs2806225	chr6	7579179	1/1	0/1	1/1	0/1	0/1	1/1	1/1	1/1	0/1	0/1	1/1	1/1	0/0
rs79027391	chr6	12121869	0/0	0/0	0/0	0/0	0/0	0/0	0/0	0/0	0/0	0/0	0/0	0/0	0/0
rs179943	chr6	16398087	0/0	0/0	0/0	0/0	0/0	0/0	0/0	0/0	0/0	0/0	0/0	0/0	0/0
rs2237199	chr6	16429790	0/0	0/1	0/0	0/1	0/0	0/0	0/0	0/0	0/0	0/0	0/0	0/0	1/1
rs1570155	chr6	20382369	0/1	0/1	0/0	0/1	1/1	0/0	0/0	1/1	0/0	0/1	0/1	1/1	0/1
rs9356744	chr6	20685255	0/0	0/1	1/1	0/0	0/1	0/0	0/1	0/1	0/1	0/1	0/1	0/1	0/0
rs2206734	chr6	20694653	0/0	0/0	0/0	0/0	0/1	0/0	0/1	0/1	0/0	0/1	0/1	0/1	0/0
rs75063949	chr6	25590813	0/0	0/0	0/0	0/1	0/0	0/0	0/1	0/0	0/0	0/0	0/0	0/1	0/1
rs1799945	chr6	26090951	0/0	0/0	0/0	0/1	0/0	0/0	0/0	0/1	0/0	0/0	0/1	0/0	0/0
rs1800562	chr6	26092913	0/0	0/0	0/0	0/0	0/0	0/0	0/0	0/0	0/0	0/0	0/0	0/0	0/0
rs13195401	chr6	26463346	0/0	0/0	0/0	0/0	0/0	0/0	0/0	0/0	0/1	0/0	0/0	0/0	0/0
rs13195402	chr6	26463347	0/0	0/0	0/0	0/0	0/0	0/0	0/0	0/0	0/1	0/0	0/0	0/0	0/0
rs55834529	chr6	27104763	0/0	0/0	0/0	0/0	0/0	0/0	0/0	0/0	0/0	0/0	0/0	0/0	0/0
rs13194053	chr6	27176104	0/1	0/0	0/0	0/0	0/0	0/0	0/0	0/0	0/0	0/0	0/0	0/0	0/0
rs6932590	chr6	27281152	0/1	0/0	0/0	0/0	0/0	0/0	0/0	0/0	0/0	0/0	0/0	0/0	0/0
rs16897515	chr6	27310241	0/1	0/0	0/0	0/0	0/1	0/0	0/0	0/0	0/0	0/0	0/0	0/0	0/0
rs2747054	chr6	27815581	0/0	0/1	0/0	0/0	0/0	0/0	0/0	0/0	0/0	0/0	0/1	0/0	0/0
rs34788973	chr6	27911422	0/0	0/0	0/0	0/0	0/0	0/0	0/0	0/0	0/0	0/0	0/0	0/0	0/0
rs13205911	chr6	28156336	0/0	0/0	0/0	0/0	0/0	0/0	0/0	0/0	0/0	0/0	0/0	0/0	0/0
rs28757581	chr6	29112227	0/0	0/0	0/0	0/1	0/1	0/0	0/0	0/0	0/1	0/0	0/0	0/0	0/0
rs3749977	chr6	29112567	0/1	0/0	0/0	0/1	0/1	0/1	0/0	0/0	0/1	0/0	0/0	0/0	0/1
rs9257834	chr6	29396838	0/0	0/1	0/1	0/1	0/1	0/0	1/1	0/1	0/1	0/1	1/1	1/1	0/0
rs1800629	chr6	31575254	0/1	0/0	0/0	0/0	0/0	0/0	0/0	0/0	0/1	0/0	0/0	0/0	0/0
rs6942022	chr6	33742507	0/0	0/0	0/1	0/1	0/0	0/0	0/1	0/0	0/0	0/0	0/0	0/0	0/0
rs2267668	chr6	35410145	1/1	0/1	1/1	1/1	0/1	1/1	1/1	1/1	1/1	1/1	1/1	1/1	1/1
rs2016520	chr6	35411001	1/1	0/0	1/1	0/1	0/1	1/1	1/1	1/1	1/1	1/1	1/1	1/1	1/1
rs1053049	chr6	35427841	1/1	0/0	1/1	0/1	0/1	1/1	1/1	1/1	1/1	1/1	1/1	1/1	0/1
rs2395655	chr6	36677919	1/1	0/1	0/1	0/1	0/0	0/1	0/0	0/0	0/0	0/1	0/1	1/1	1/1
rs6923761	chr6	39066296	0/0	0/1	0/0	0/0	0/1	0/1	1/1	0/0	0/0	0/0	0/0	0/1	0/0
rs2010963	chr6	43770613	0/0	0/0	0/1	0/1	1/1	0/1	0/0	1/1	0/1	1/1	1/1	1/1	0/1
rs2223471	chr6	50765935	0/0	0/1	1/1	0/1	0/1	1/1	0/0	0/0	0/1	0/1	1/1	1/1	0/1
rs2272903	chr6	50818858	0/0	0/0	0/0	0/0	0/0	0/0	1/1	0/1	0/1	0/0	0/0	0/0	0/0
rs987237	chr6	50835337	0/0	0/1	0/0	0/1	0/0	0/1	0/0	0/0	0/0	0/0	0/0	0/0	0/0
rs734597	chr6	50868566	0/0	0/1	0/0	0/0	0/0	0/1	0/0	0/0	0/0	0/0	0/0	0/0	0/0
rs7762246	chr6	51234458	0/1	0/0	0/1	0/0	0/0	0/0	0/0	0/1	0/1	0/0	0/0	0/1	0/0
rs12720071	chr6	88141462	0/0	0/0	0/0	0/0	0/1	0/0	0/0	0/0	0/0	0/0	0/0	0/0	0/1
rs1049353	chr6	88143916	0/0	0/1	0/0	0/0	0/0	0/0	0/0	0/0	0/1	0/0	0/0	0/0	0/0
rs11757661	chr6	88473861	0/0	0/0	0/0	0/0	0/0	0/0	0/1	0/0	0/0	0/0	0/1	0/0	0/0
rs282114	chr6	89222485	0/0	0/0	1/1	0/0	0/0	0/1	0/1	0/0	0/0	0/1	0/0	0/0	0/0
rs9400239	chr6	108656460	0/1	0/1	0/1	0/1	1/1	0/1	1/1	0/1	0/1	0/1	0/1	1/1	0/0
rs2679649	chr6	122029239	0/1	1/1	0/0	0/0	0/1	0/0	0/0	0/0	0/1	0/0	0/1	0/0	0/0
rs11154271	chr6	124835303	1/1	1/1	0/0	0/0	1/1	0/1	1/1	1/1	0/1	1/1	1/1	1/1	1/1
rs9399032	chr6	132567800	0/0	0/0	0/1	0/0	0/1	0/1	0/1	0/0	0/0	0/0	0/1	1/1	0/1
rs4305746	chr6	132572626	0/0	0/0	0/1	1/1	0/1	0/1	0/1	0/1	0/1	0/1	0/1	1/1	1/1
rs6937506	chr6	132578260	0/1	1/1	0/1	0/0	0/1	0/1	0/0	0/0	0/1	0/1	0/1	0/0	0/0
rs9385619	chr6	132623384	0/1	0/0	0/0	1/1	1/1	1/1	0/0	0/1	0/0	0/1	1/1	1/1	1/1
rs184898731	chr6	132636089	0/0	0/0	0/0	0/0	0/0	0/0	0/0	0/0	0/0	0/0	0/0	0/0	0/0
rs718186	chr6	136280749	0/0	0/0	0/0	0/0	0/0	0/0	0/0	0/0	0/0	0/0	0/0	0/0	0/0
rs10046456	chr6	150804115	0/0	0/0	0/0	0/0	0/0	0/0	0/0	0/0	0/0	0/0	0/0	0/0	0/0
rs1293940	chr6	151677956	0/1	0/1	0/1	0/1	0/0	0/1	0/1	1/1	0/0	1/1	0/1	0/0	0/0
rs1101081	chr6	151711782	0/0	0/0	0/0	0/0	0/0	0/0	0/0	0/0	0/0	0/0	0/0	0/0	0/0
rs79041188	chr6	151718754	0/0	0/0	0/0	0/0	0/0	0/0	0/0	0/0	0/0	0/0	0/0	0/0	0/0
rs12195741	chr6	151733239	1/1	1/1	0/0	0/0	0/1	0/0	1/1	0/0	0/1	0/1	0/0	0/1	0/0
rs60945108	chr6	151759697	0/0	0/0	0/0	0/0	0/0	0/0	0/0	0/0	0/0	0/0	0/0	0/0	0/0
rs543650	chr6	151789808	0/1	0/1	1/1	1/1	0/1	1/1	0/0	0/1	0/0	0/1	1/1	0/1	1/1
rs11155813	chr6	151828300	0/0	0/0	0/0	0/0	0/0	0/1	0/0	0/0	0/0	0/0	0/1	0/0	0/0
rs6902771	chr6	151836746	0/1	0/1	1/1	0/1	0/0	1/1	0/0	0/0	0/0	0/0	1/1	0/0	0/1
rs2234693	chr6	151842200	0/1	0/1	1/1	0/1	0/1	1/1	0/0	0/0	0/0	0/0	1/1	0/0	0/1
rs9340799	chr6	151842246	0/1	0/1	1/1	0/1	0/1	0/1	0/0	0/0	0/0	0/0	1/1	0/0	0/1
rs11756123	chr6	151896944	0/1	1/1	1/1	0/0	0/0	0/1	0/1	0/0	0/1	0/0	0/1	1/1	0/1
rs2347867	chr6	151908715	0/1	1/1	1/1	0/0	0/0	0/1	0/1	0/0	0/1	0/0	0/1	1/1	0/1
rs6557171	chr6	151913458	0/1	1/1	1/1	0/0	0/0	0/1	0/1	0/0	0/1	0/0	0/1	1/1	0/1
rs4305732	chr6	151919313	0/1	1/1	1/1	0/0	0/0	0/1	0/1	0/0	0/1	0/1	0/1	1/1	0/1
rs726281	chr6	151981443	0/1	1/1	1/1	0/0	0/1	0/1	1/1	0/1	0/1	0/1	0/1	1/1	0/1
rs3020418	chr6	152024027	0/1	0/0	0/0	0/1	0/1	0/1	0/0	0/0	0/1	0/1	0/1	0/0	0/0
rs36083386	chr6	152076777	0/0	0/0	0/0	0/1	0/1	0/1	0/0	0/0	0/1	0/1	0/0	0/0	0/0
rs3798577	chr6	152099995	0/0	0/0	0/1	0/1	0/1	0/1	0/0	0/1	0/0	0/0	1/1	0/1	0/0
rs2295193	chr6	152131959	0/0	0/1	1/1	1/1	0/1	0/1	0/1	0/1	0/0	0/0	1/1	1/1	0/1
rs1799971	chr6	154039662	0/0	0/1	0/0	0/0	0/1	0/1	0/0	0/1	0/0	0/0	0/1	0/0	0/0
rs4880	chr6	159692840	0/1	0/1	0/0	0/0	0/1	0/0	1/1	0/0	1/1	1/1	1/1	0/0	0/1
rs10486201	chr7	7898965	0/0	0/0	0/0	0/0	0/0	0/0	1/1	0/0	0/1	0/0	1/1	0/0	0/0
rs114945094	chr7	12153806	0/0	0/0	0/1	0/1	0/1	1/1	0/1	0/1	0/0	0/0	1/1	0/1	0/1
rs12666612	chr7	18335622	0/1	0/0	0/0	0/0	0/0	0/1	0/0	0/0	0/0	0/0	0/0	0/0	0/0
rs2069827	chr7	22725837	0/0	0/0	0/0	0/0	0/0	0/0	0/0	0/0	0/0	1/1	0/0	0/0	0/1
rs1800795	chr7	22727026	0/1	0/1	1/1	0/1	1/1	0/1	1/1	0/1	1/1	0/0	1/1	1/1	1/1
rs1049305	chr7	30924207	1/1	0/1	0/1	0/1	1/1	0/1	0/1	0/0	0/1	1/1	0/1	0/1	0/0
rs10252228	chr7	34900427	0/1	0/0	0/1	0/0	0/0	0/0	0/0	0/1	1/1	0/1	0/1	0/0	0/1
rs12666870	chr7	78529155	0/0	0/0	1/1	0/0	0/0	0/1	0/0	1/1	0/1	0/1	0/0	1/1	0/0
rs11760281	chr7	80475233	1/1	1/1	1/1	0/1	1/1	1/1	0/1	1/1	0/1	1/1	1/1	1/1	0/0
rs1194197	chr7	80546290	1/1	0/0	0/0	1/1	1/1	0/0	1/1	0/1	1/1	0/1	0/1	0/1	0/0
rs1984112	chr7	80613604	1/1	0/1	0/1	1/1	0/1	0/0	0/1	0/0	0/1	0/1	0/1	0/0	0/0
rs1761667	chr7	80615623	0/0	0/1	0/1	0/0	0/1	1/1	0/1	1/1	0/1	0/1	0/1	1/1	0/1
rs2151916	chr7	80624067	1/1	0/1	0/1	1/1	0/1	0/0	0/1	0/1	0/1	0/1	0/1	0/0	0/0
rs1527479	chr7	80643252	0/0	0/1	0/1	0/0	0/1	1/1	0/1	0/1	0/1	0/1	0/1	1/1	1/1
rs1049654	chr7	80646139	0/0	0/1	0/1	0/0	0/1	1/1	0/1	0/1	0/1	0/1	0/1	1/1	1/1
rs3211842	chr7	80653320	1/1	0/1	0/1	1/1	0/1	0/0	0/1	0/1	0/1	0/1	0/1	0/0	0/0
rs3211849	chr7	80654007	1/1	0/1	0/1	1/1	0/1	0/0	0/1	0/1	0/1	0/1	0/1	0/0	0/0
rs1054516	chr7	80655626	0/0	0/1	0/1	0/0	0/1	1/1	0/1	0/1	0/1	0/1	0/1	1/1	1/1
rs3173798	chr7	80656534	0/0	0/0	0/0	0/0	0/0	0/0	0/0	0/0	0/0	0/0	0/0	0/0	0/1
rs3211867	chr7	80657624	0/0	0/0	0/0	0/0	0/0	0/0	0/0	0/0	0/0	0/0	0/0	0/0	0/1
rs1358337	chr7	80659069	1/1	0/1	0/1	1/1	0/1	0/0	0/1	0/1	0/1	0/1	0/1	0/0	0/1
rs3211883	chr7	80659727	1/1	1/1	1/1	1/1	1/1	1/1	1/1	1/1	1/1	1/1	1/1	1/1	0/1
rs3211892	chr7	80661053	1/1	1/1	1/1	1/1	1/1	1/1	1/1	1/1	1/1	1/1	1/1	1/1	1/1
rs3211908	chr7	80664600	0/0	0/0	0/0	0/0	0/0	0/0	0/0	0/0	0/0	0/0	0/0	0/0	0/0
rs3211909	chr7	80664799	0/0	0/0	0/0	0/0	0/0	0/0	0/0	0/0	0/0	0/0	0/0	0/0	0/0
rs3211938	chr7	80671133	0/0	0/0	0/0	0/0	0/0	0/0	0/0	0/0	0/0	0/0	0/0	0/0	0/0
rs1527483	chr7	80672184	0/0	0/0	0/0	0/0	0/0	0/0	0/1	0/0	0/0	0/0	0/0	0/0	0/0
rs3212018	chr7	80674384	0/0	0/0	0/0	0/0	0/0	0/0	0/0	0/0	0/0	0/0	0/0	0/0	0/1
rs7755	chr7	80676955	1/1	1/1	0/1	0/1	0/1	0/0	1/1	0/1	0/1	0/0	0/1	0/1	0/0
rs1049673	chr7	80677034	1/1	1/1	0/1	0/1	0/1	0/0	1/1	0/1	0/1	0/0	0/1	0/1	0/0
rs13246513	chr7	80677435	1/1	1/1	0/1	0/1	0/1	0/0	1/1	0/1	0/1	0/0	0/1	0/1	0/0
rs724225	chr7	86696066	1/1	1/1	0/0	0/1	1/1	0/1	1/1	0/1	1/1	0/1	1/1	1/1	0/1
rs6959888	chr7	88967071	0/0	0/0	0/0	0/0	0/0	0/1	0/0	0/1	0/1	0/0	0/0	0/0	0/0
rs17734766	chr7	93568154	0/0	0/0	0/0	0/0	0/0	0/0	0/0	0/1	0/0	0/1	0/0	0/0	0/0
rs7385804	chr7	100638347	0/0	0/0	0/0	0/0	0/0	0/0	0/0	0/0	0/0	0/0	0/0	1/1	0/0
rs17228616	chr7	100890100	0/1	0/0	0/0	0/0	0/1	0/0	0/0	0/0	0/0	0/0	0/0	0/0	0/0
rs4730153	chr7	106263704	0/0	0/0	0/0	1/1	0/0	0/1	0/1	1/1	1/1	0/0	0/0	1/1	0/0
rs846664	chr7	122995119	0/0	0/0	0/0	0/0	0/0	0/0	0/0	0/0	0/0	0/0	0/0	0/0	0/0
rs978739	chr7	122995846	0/1	0/1	0/0	0/1	0/0	0/0	1/1	0/1	0/0	0/0	1/1	0/0	0/1
rs7799039	chr7	128238730	0/1	0/0	0/1	1/1	0/1	0/1	0/1	0/0	0/0	0/1	1/1	0/0	0/1
rs13228377	chr7	128239891	0/1	1/1	0/1	0/0	0/1	0/1	0/1	1/1	1/1	0/1	0/0	0/1	0/0
rs2167270	chr7	128241296	0/1	0/1	0/0	0/0	0/1	0/1	0/1	1/1	1/1	0/0	0/0	0/1	0/0
rs6949152	chr7	129646596	0/0	0/0	0/0	0/0	0/1	0/1	0/1	0/1	0/1	0/1	1/1	0/0	0/0
rs2402970	chr7	129739961	0/0	0/0	0/0	0/0	0/0	0/1	0/1	0/1	0/1	0/1	1/1	0/0	0/0
rs10500120	chr7	129753501	0/1	0/0	0/1	0/1	0/0	1/1	0/1	0/1	1/1	1/1	1/1	0/1	0/0
rs1376607	chr7	137390014	0/0	0/1	0/1	0/0	0/0	0/0	0/1	0/1	0/1	0/0	0/0	0/1	0/1
rs3735026	chr7	137390093	0/0	0/1	0/1	0/0	0/0	0/0	0/1	0/1	0/1	0/0	0/0	0/1	0/1
rs3735025	chr7	137390098	0/0	0/1	0/1	0/0	0/0	0/0	0/1	0/1	0/1	0/0	0/0	0/1	0/1
rs145241704	chr7	141805287	0/0	0/0	0/0	0/0	0/0	0/0	0/0	0/0	0/0	0/0	0/0	0/0	0/0
rs10246939	chr7	141972804	0/1	1/1	1/1	0/1	0/1	0/1	0/0	0/1	1/1	0/1	0/0	0/1	1/1
rs1726866	chr7	141972905	0/1	0/0	0/0	0/1	0/1	0/1	1/1	0/1	0/0	0/1	1/1	0/1	0/0
rs713598	chr7	141973545	0/1	1/1	1/1	0/1	0/1	0/1	0/0	0/1	1/1	0/1	0/0	0/1	1/1
rs11976180	chr7	144044487	0/1	0/0	0/1	0/0	1/1	0/1	0/0	0/0	0/1	0/0	0/0	0/1	0/1
rs10275875	chr7	144507872	1/1	0/1	1/1	1/1	0/1	1/1	0/1	1/1	1/1	0/1	0/1	0/1	0/1
rs1800783	chr7	150992309	1/1	0/1	1/1	1/1	0/1	0/1	0/0	1/1	1/1	0/1	0/1	0/0	0/0
rs1800779	chr7	150992855	1/1	0/1	1/1	1/1	0/1	0/1	0/0	0/1	1/1	0/1	0/1	0/0	0/1
rs2070744	chr7	150992991	1/1	0/1	1/1	1/1	0/1	0/1	0/0	0/1	1/1	0/1	0/1	0/0	0/1
rs41322052	chr7	150993018	0/0	0/0	0/0	0/0	0/0	0/0	0/0	0/0	0/0	0/0	0/0	0/0	0/0
rs61722009	chr7	150997170	0/0	0/0	0/0	0/0	0/0	0/0	0/0	0/0	0/0	0/0	0/0	0/0	0/0
rs1799983	chr7	150999023	1/1	0/1	1/1	1/1	1/1	0/1	1/1	0/1	1/1	1/1	1/1	0/1	1/1
rs2551043	chr8	3332374	0/0	1/1	0/0	0/1	0/1	0/0	0/1	1/1	0/1	0/0	0/1	1/1	0/0
rs2449215	chr8	3630816	0/0	0/1	0/0	1/1	0/0	0/1	0/0	0/1	0/0	0/1	0/1	0/0	0/1
rs17150703	chr8	9888288	0/0	0/0	0/1	0/0	0/0	0/0	0/0	0/0	0/0	0/0	0/0	0/0	0/0
rs531564	chr8	9903189	0/1	0/1	0/0	0/0	0/0	0/0	0/0	0/0	0/0	0/0	0/1	0/0	0/1
rs140932049	chr8	17500544	0/0	0/0	0/0	0/0	0/0	0/0	0/0	0/0	0/0	0/0	0/0	0/0	0/0
rs17126232	chr8	18120141	0/0	0/0	0/0	0/1	0/0	0/0	0/1	0/1	0/0	0/0	0/0	0/0	0/0
rs7833268	chr8	23961174	0/0	0/0	0/0	0/0	0/0	0/1	0/0	0/0	0/0	0/0	0/0	0/1	0/1
rs2043063	chr8	27464917	1/1	1/1	1/1	1/1	1/1	1/1	1/1	1/1	1/1	1/1	1/1	1/1	1/1
rs775866891	chr8	27544189	0/0	0/0	0/0	0/0	0/0	0/0	0/0	0/0	0/0	0/0	0/0	0/0	0/0
rs56372821	chr8	27578983	1/1	0/0	0/0	0/0	0/0	0/0	1/1	0/0	0/0	0/0	0/0	0/0	0/1
rs10096097	chr8	30169582	0/1	0/1	1/1	0/0	0/1	1/1	1/1	1/1	0/1	1/1	1/1	1/1	0/1
rs17721043	chr8	32579357	0/1	0/0	0/1	0/0	0/0	0/1	0/0	0/1	0/1	0/0	0/1	0/1	0/0
rs72655365	chr8	37965701	0/0	0/0	0/0	0/0	0/0	0/0	0/0	0/0	0/0	0/0	0/0	0/0	0/0
rs72655364	chr8	37965977	0/0	0/0	0/0	0/0	0/0	0/0	0/0	0/0	0/0	0/0	0/0	0/0	0/0
rs4994	chr8	37966280	0/0	0/0	0/0	0/0	0/0	0/0	0/0	0/0	0/1	0/0	0/0	0/0	0/0
rs779794484	chr8	37966284	0/0	0/0	0/0	0/0	0/0	0/0	0/0	0/0	0/0	0/0	0/0	0/0	0/0
rs6473799	chr8	53240563	0/1	0/0	0/1	1/1	0/1	0/0	0/0	0/1	0/0	0/0	0/0	1/1	0/0
rs12545109	chr8	56401347	0/1	1/1	0/1	0/1	1/1	0/1	0/1	1/1	1/1	1/1	1/1	1/1	1/1
rs10504473	chr8	70348097	0/0	0/0	0/1	0/0	0/0	0/1	0/1	0/0	0/1	0/1	0/1	0/1	0/0
rs10504474	chr8	70348225	0/0	0/0	0/1	0/0	0/0	0/0	0/0	0/0	0/1	0/0	0/0	0/1	0/0
rs77742018	chr8	95492244	0/0	0/0	0/0	0/0	0/0	0/0	0/0	0/0	0/0	0/0	0/0	0/0	0/0
rs6468527	chr8	97013457	1/1	0/1	1/1	1/1	0/1	0/1	1/1	0/1	1/1	0/0	0/1	1/1	0/1
rs3134353	chr8	100935225	0/1	0/1	0/1	0/1	1/1	1/1	1/1	1/1	0/0	0/1	1/1	0/0	1/1
rs16892496	chr8	109097622	0/1	0/0	0/1	0/0	0/0	0/1	1/1	0/0	0/1	0/1	0/0	0/0	0/1
rs17241164	chr9	9857448	0/0	0/0	0/0	0/0	0/0	0/0	0/0	0/0	0/0	0/0	0/0	0/0	0/0
rs16933006	chr9	15335916	0/0	0/0	0/0	0/0	0/0	0/0	0/1	0/1	0/0	0/1	0/0	0/1	0/1
rs1755271	chr9	17979580	0/0	1/1	1/1	0/1	1/1	0/1	0/0	0/0	1/1	1/1	1/1	1/1	0/0
rs17759424	chr9	20823315	0/0	0/0	0/0	0/0	0/0	0/0	0/0	0/0	1/1	0/1	0/0	0/1	0/0
rs9632884	chr9	22072302	1/1	0/1	0/1	0/1	1/1	0/1	0/1	0/1	0/1	1/1	1/1	0/1	1/1
rs512089	chr9	23874049	0/1	0/0	1/1	0/0	0/0	0/0	0/1	0/0	0/0	0/1	0/0	0/1	0/0
rs10968576	chr9	28414341	0/1	0/0	0/0	0/0	0/0	0/1	0/0	0/0	0/0	0/0	0/0	0/1	0/0
rs10125737	chr9	78468981	1/1	0/1	0/1	1/1	0/0	0/1	0/1	1/1	0/1	0/1	0/0	0/1	0/0
rs10123741	chr9	85021705	0/0	0/0	0/0	0/0	0/0	0/0	0/1	0/0	0/0	0/1	0/0	0/0	0/0
rs4523321	chr9	101775328	0/0	0/0	0/0	0/0	0/0	0/0	0/0	0/0	0/0	0/0	0/0	0/0	0/0
rs2301241	chr9	110257228	1/1	1/1	0/0	0/1	0/0	1/1	1/1	1/1	1/1	0/1	1/1	0/1	0/0
rs10125054	chr9	112035757	0/0	0/1	0/1	0/1	0/0	0/0	0/0	0/0	0/0	0/0	0/0	0/0	0/1
rs2416604	chr9	118033712	0/1	0/1	0/0	0/0	0/1	0/1	1/1	1/1	0/0	0/0	0/0	0/1	1/1
rs7880	chr9	128323345	0/0	0/1	0/0	0/0	0/0	0/0	0/0	0/1	0/0	0/0	0/0	0/1	0/0
rs12722	chr9	134842570	0/1	0/0	0/1	1/1	1/1	0/1	0/1	1/1	0/1	0/1	0/1	1/1	1/1
rs62577244	chr9	135536231	0/0	0/0	0/1	0/0	1/1	0/0	0/0	0/0	0/0	0/0	0/0	0/1	0/0
rs939787	chrX	32061837	0/0	0/0	1/1	0/0	0/0	0/0	0/0	0/0	0/0	0/0	0/0	0/0	0/0
rs56156506	chrX	38140399	0/0	0/0	0/0	0/0	0/0	0/0	0/0	0/0	0/0	1/1	0/0	1/1	0/0
rs5031002	chrX	67722783	0/0	0/0	0/0	0/0	0/0	0/0	0/0	0/0	0/0	0/0	0/0	0/0	0/0
rs6318	chrX	114731326	0/1	1/1	0/0	0/1	1/1	1/1	1/1	1/1	1/1	1/1	1/1	1/1	1/1
rs11091046	chrX	116173873	0/1	1/1	1/1	1/1	0/1	0/0	0/0	1/1	1/1	1/1	1/1	1/1	0/1
rs502434	chrX	123403426	0/0	1/1	1/1	1/1	0/0	0/1	0/0	1/1	1/1	1/1	1/1	1/1	1/1
